src/NTT/ntt_tb_1.vcd
$date
	Sat Mar 15 13:39:29 2025
$end
$version
	Icarus Verilog
$end
$timescale
	1ps
$end
$scope module ntt_tb $end
$scope module NTT_UT $end
$var wire 1 ! add_or_sub $end
$var wire 1 " clk $end
$var wire 2 # mode [1:0] $end
$var wire 96 $ r_data [95:0] $end
$var wire 8 % r_data_addr [7:0] $end
$var wire 8 & r_start_offset_A [7:0] $end
$var wire 8 ' r_start_offset_B [7:0] $end
$var wire 1 ( rst $end
$var wire 1 ) start $end
$var wire 8 * w_data_addr [7:0] $end
$var wire 8 + w_data_addr_offset [7:0] $end
$var wire 96 , w_data [95:0] $end
$var wire 5 - w_addr [4:0] $end
$var wire 5 . r_addr_wire [4:0] $end
$var wire 5 / r_addr [4:0] $end
$var wire 24 0 coef_reg [23:0] $end
$var wire 7 1 coef_addr [6:0] $end
$var wire 96 2 but_result [95:0] $end
$var wire 96 3 ROM_r_data [95:0] $end
$var parameter 32 4 FINISH $end
$var parameter 32 5 PROCESSING $end
$var parameter 32 6 START $end
$var reg 8 7 clk_counter [7:0] $end
$var reg 1 8 in_buf_load $end
$var reg 1 9 in_buf_pre_load $end
$var reg 96 : in_data_reg [95:0] $end
$var reg 8 ; ntt_counter [7:0] $end
$var reg 3 < ntt_stage [2:0] $end
$var reg 1 = ntt_type $end
$var reg 8 > r_addr_reg [7:0] $end
$var reg 2 ? stage [1:0] $end
$var reg 2 @ temp_stage [1:0] $end
$var reg 8 A w_addr_reg [7:0] $end
$var reg 1 B w_data_en $end
$scope module AG $end
$var wire 1 " clk $end
$var wire 8 C clk_counter [7:0] $end
$var wire 2 D mode [1:0] $end
$var wire 1 ( rst $end
$var wire 8 E cycle_cnt_sub_2 [7:0] $end
$var reg 7 F coef_addr [6:0] $end
$var reg 7 G coef_addr_cnt [6:0] $end
$var reg 7 H coef_addr_offset [6:0] $end
$var reg 5 I r_addr [4:0] $end
$var reg 5 J raddr_offset [4:0] $end
$var reg 5 K stage_offset [4:0] $end
$var reg 5 L w_addr [4:0] $end
$var integer 32 M i [31:0] $end
$upscope $end
$scope module BU $end
$var wire 2 N bu_0_mode [1:0] $end
$var wire 2 O bu_1_mode [1:0] $end
$var wire 1 " clk $end
$var wire 1 8 in_buf_load $end
$var wire 1 9 in_buf_pre_load $end
$var wire 96 P in_data [95:0] $end
$var wire 2 Q mode [1:0] $end
$var wire 12 R mul_reduce_in_1 [11:0] $end
$var wire 12 S mul_reduce_in_2 [11:0] $end
$var wire 1 ( rst $end
$var wire 3 T stage [2:0] $end
$var wire 1 = type $end
$var wire 96 U out_data [95:0] $end
$var wire 12 V mul_reduce_out [11:0] $end
$var wire 24 W in_coef [23:0] $end
$var wire 12 X bu_3_out_2 [11:0] $end
$var wire 12 Y bu_3_out_1 [11:0] $end
$var wire 2 Z bu_3_mode [1:0] $end
$var wire 12 [ bu_2_out_2 [11:0] $end
$var wire 12 \ bu_2_out_1 [11:0] $end
$var wire 2 ] bu_2_mode [1:0] $end
$var wire 12 ^ bu_1_out_2 [11:0] $end
$var wire 12 _ bu_1_out_1 [11:0] $end
$var wire 12 ` bu_0_out_2 [11:0] $end
$var wire 12 a bu_0_out_1 [11:0] $end
$var reg 12 b bu_0_coef [11:0] $end
$var reg 12 c bu_0_in_1 [11:0] $end
$var reg 12 d bu_0_in_2 [11:0] $end
$var reg 12 e bu_1_coef [11:0] $end
$var reg 12 f bu_1_in_1 [11:0] $end
$var reg 12 g bu_1_in_2 [11:0] $end
$var reg 12 h bu_2_coef [11:0] $end
$var reg 12 i bu_2_in_1 [11:0] $end
$var reg 12 j bu_2_in_2 [11:0] $end
$var reg 12 k bu_3_coef [11:0] $end
$var reg 12 l bu_3_in_1 [11:0] $end
$var reg 12 m bu_3_in_2 [11:0] $end
$var reg 12 n mult_a0 [11:0] $end
$var reg 12 o mult_a1 [11:0] $end
$var reg 12 p mult_b0 [11:0] $end
$var reg 12 q mult_b1 [11:0] $end
$var reg 12 r mult_coef [11:0] $end
$var integer 32 s i [31:0] $end
$scope module BU0 $end
$var wire 1 " clk $end
$var wire 12 t coef [11:0] $end
$var wire 12 u in_1 [11:0] $end
$var wire 12 v in_2 [11:0] $end
$var wire 2 w mode [1:0] $end
$var wire 12 x mult_out_1 [11:0] $end
$var wire 1 ( rst $end
$var wire 12 y out_2 [11:0] $end
$var wire 12 z out_1 [11:0] $end
$var wire 12 { mult_out_2 [11:0] $end
$var wire 12 | mult_in_2 [11:0] $end
$var wire 12 } mult_in_1 [11:0] $end
$var wire 12 ~ mult_coef_in [11:0] $end
$var wire 12 !" addsub_out_2 [11:0] $end
$var wire 12 "" addsub_out_1 [11:0] $end
$var wire 12 #" addsub_in_2 [11:0] $end
$var wire 12 $" addsub_in_1 [11:0] $end
$var reg 12 %" addsub_in_1_reg [11:0] $end
$var reg 12 &" addsub_in_2_reg [11:0] $end
$var reg 12 '" mult_coef_in_reg [11:0] $end
$var integer 32 (" i [31:0] $end
$scope module addition $end
$var wire 12 )" in1 [11:0] $end
$var wire 12 *" in2 [11:0] $end
$var wire 2 +" mode [1:0] $end
$var wire 13 ," sum [12:0] $end
$var wire 12 -" res [11:0] $end
$var wire 12 ." reduce_sum [11:0] $end
$upscope $end
$scope module multiply $end
$var wire 1 " clk $end
$var wire 12 /" in1 [11:0] $end
$var wire 12 0" in2 [11:0] $end
$var wire 1 ( rst $end
$var wire 12 1" res [11:0] $end
$var wire 24 2" product [23:0] $end
$var reg 24 3" product_reg [23:0] $end
$var reg 12 4" reg1 [11:0] $end
$var reg 12 5" reg2 [11:0] $end
$scope module mod $end
$var wire 24 6" c [23:0] $end
$var wire 1 " clk $end
$var wire 1 ( rst $end
$var wire 6 7" s_2 [5:0] $end
$var wire 6 8" s_1 [5:0] $end
$var wire 6 9" r_1 [5:0] $end
$var wire 14 :" r1c0 [13:0] $end
$var wire 12 ;" r [11:0] $end
$var wire 14 <" d_1 [13:0] $end
$var wire 14 =" d1_sum [13:0] $end
$var wire 16 >" c1 [15:0] $end
$var wire 8 ?" c0 [7:0] $end
$var wire 14 @" R [13:0] $end
$var wire 13 A" Q_1 [12:0] $end
$var reg 13 B" Q_1_reg [12:0] $end
$var reg 14 C" R_reg [13:0] $end
$var reg 8 D" c0_reg [7:0] $end
$var reg 6 E" c1_reg [5:0] $end
$upscope $end
$upscope $end
$scope module subtraction $end
$var wire 12 F" in1 [11:0] $end
$var wire 12 G" in2 [11:0] $end
$var wire 2 H" mode [1:0] $end
$var wire 12 I" res [11:0] $end
$var wire 12 J" reduce_diff [11:0] $end
$var wire 13 K" diff [12:0] $end
$upscope $end
$upscope $end
$scope module BU1 $end
$var wire 1 " clk $end
$var wire 12 L" coef [11:0] $end
$var wire 12 M" in_1 [11:0] $end
$var wire 12 N" in_2 [11:0] $end
$var wire 2 O" mode [1:0] $end
$var wire 12 P" mult_out_1 [11:0] $end
$var wire 1 ( rst $end
$var wire 12 Q" out_2 [11:0] $end
$var wire 12 R" out_1 [11:0] $end
$var wire 12 S" mult_out_2 [11:0] $end
$var wire 12 T" mult_in_2 [11:0] $end
$var wire 12 U" mult_in_1 [11:0] $end
$var wire 12 V" mult_coef_in [11:0] $end
$var wire 12 W" addsub_out_2 [11:0] $end
$var wire 12 X" addsub_out_1 [11:0] $end
$var wire 12 Y" addsub_in_2 [11:0] $end
$var wire 12 Z" addsub_in_1 [11:0] $end
$var reg 12 [" addsub_in_1_reg [11:0] $end
$var reg 12 \" addsub_in_2_reg [11:0] $end
$var reg 12 ]" mult_coef_in_reg [11:0] $end
$var integer 32 ^" i [31:0] $end
$scope module addition $end
$var wire 12 _" in1 [11:0] $end
$var wire 12 `" in2 [11:0] $end
$var wire 2 a" mode [1:0] $end
$var wire 13 b" sum [12:0] $end
$var wire 12 c" res [11:0] $end
$var wire 12 d" reduce_sum [11:0] $end
$upscope $end
$scope module multiply $end
$var wire 1 " clk $end
$var wire 12 e" in1 [11:0] $end
$var wire 12 f" in2 [11:0] $end
$var wire 1 ( rst $end
$var wire 12 g" res [11:0] $end
$var wire 24 h" product [23:0] $end
$var reg 24 i" product_reg [23:0] $end
$var reg 12 j" reg1 [11:0] $end
$var reg 12 k" reg2 [11:0] $end
$scope module mod $end
$var wire 24 l" c [23:0] $end
$var wire 1 " clk $end
$var wire 1 ( rst $end
$var wire 6 m" s_2 [5:0] $end
$var wire 6 n" s_1 [5:0] $end
$var wire 6 o" r_1 [5:0] $end
$var wire 14 p" r1c0 [13:0] $end
$var wire 12 q" r [11:0] $end
$var wire 14 r" d_1 [13:0] $end
$var wire 14 s" d1_sum [13:0] $end
$var wire 16 t" c1 [15:0] $end
$var wire 8 u" c0 [7:0] $end
$var wire 14 v" R [13:0] $end
$var wire 13 w" Q_1 [12:0] $end
$var reg 13 x" Q_1_reg [12:0] $end
$var reg 14 y" R_reg [13:0] $end
$var reg 8 z" c0_reg [7:0] $end
$var reg 6 {" c1_reg [5:0] $end
$upscope $end
$upscope $end
$scope module subtraction $end
$var wire 12 |" in1 [11:0] $end
$var wire 12 }" in2 [11:0] $end
$var wire 2 ~" mode [1:0] $end
$var wire 12 !# res [11:0] $end
$var wire 12 "# reduce_diff [11:0] $end
$var wire 13 ## diff [12:0] $end
$upscope $end
$upscope $end
$scope module BU2 $end
$var wire 1 " clk $end
$var wire 12 $# coef [11:0] $end
$var wire 12 %# in_1 [11:0] $end
$var wire 12 &# in_2 [11:0] $end
$var wire 2 '# mode [1:0] $end
$var wire 12 (# mult_out_1 [11:0] $end
$var wire 1 ( rst $end
$var wire 12 )# out_2 [11:0] $end
$var wire 12 *# out_1 [11:0] $end
$var wire 12 +# mult_out_2 [11:0] $end
$var wire 12 ,# mult_in_2 [11:0] $end
$var wire 12 -# mult_in_1 [11:0] $end
$var wire 12 .# mult_coef_in [11:0] $end
$var wire 12 /# addsub_out_2 [11:0] $end
$var wire 12 0# addsub_out_1 [11:0] $end
$var wire 12 1# addsub_in_2 [11:0] $end
$var wire 12 2# addsub_in_1 [11:0] $end
$var reg 12 3# addsub_in_1_reg [11:0] $end
$var reg 12 4# addsub_in_2_reg [11:0] $end
$var reg 12 5# mult_coef_in_reg [11:0] $end
$var integer 32 6# i [31:0] $end
$scope module addition $end
$var wire 12 7# in1 [11:0] $end
$var wire 12 8# in2 [11:0] $end
$var wire 2 9# mode [1:0] $end
$var wire 13 :# sum [12:0] $end
$var wire 12 ;# res [11:0] $end
$var wire 12 <# reduce_sum [11:0] $end
$upscope $end
$scope module multiply $end
$var wire 1 " clk $end
$var wire 12 =# in1 [11:0] $end
$var wire 12 ># in2 [11:0] $end
$var wire 1 ( rst $end
$var wire 12 ?# res [11:0] $end
$var wire 24 @# product [23:0] $end
$var reg 24 A# product_reg [23:0] $end
$var reg 12 B# reg1 [11:0] $end
$var reg 12 C# reg2 [11:0] $end
$scope module mod $end
$var wire 24 D# c [23:0] $end
$var wire 1 " clk $end
$var wire 1 ( rst $end
$var wire 6 E# s_2 [5:0] $end
$var wire 6 F# s_1 [5:0] $end
$var wire 6 G# r_1 [5:0] $end
$var wire 14 H# r1c0 [13:0] $end
$var wire 12 I# r [11:0] $end
$var wire 14 J# d_1 [13:0] $end
$var wire 14 K# d1_sum [13:0] $end
$var wire 16 L# c1 [15:0] $end
$var wire 8 M# c0 [7:0] $end
$var wire 14 N# R [13:0] $end
$var wire 13 O# Q_1 [12:0] $end
$var reg 13 P# Q_1_reg [12:0] $end
$var reg 14 Q# R_reg [13:0] $end
$var reg 8 R# c0_reg [7:0] $end
$var reg 6 S# c1_reg [5:0] $end
$upscope $end
$upscope $end
$scope module subtraction $end
$var wire 12 T# in1 [11:0] $end
$var wire 12 U# in2 [11:0] $end
$var wire 2 V# mode [1:0] $end
$var wire 12 W# res [11:0] $end
$var wire 12 X# reduce_diff [11:0] $end
$var wire 13 Y# diff [12:0] $end
$upscope $end
$upscope $end
$scope module BU3 $end
$var wire 1 " clk $end
$var wire 12 Z# coef [11:0] $end
$var wire 12 [# in_1 [11:0] $end
$var wire 12 \# in_2 [11:0] $end
$var wire 2 ]# mode [1:0] $end
$var wire 12 ^# mult_out_1 [11:0] $end
$var wire 1 ( rst $end
$var wire 12 _# out_2 [11:0] $end
$var wire 12 `# out_1 [11:0] $end
$var wire 12 a# mult_out_2 [11:0] $end
$var wire 12 b# mult_in_2 [11:0] $end
$var wire 12 c# mult_in_1 [11:0] $end
$var wire 12 d# mult_coef_in [11:0] $end
$var wire 12 e# addsub_out_2 [11:0] $end
$var wire 12 f# addsub_out_1 [11:0] $end
$var wire 12 g# addsub_in_2 [11:0] $end
$var wire 12 h# addsub_in_1 [11:0] $end
$var reg 12 i# addsub_in_1_reg [11:0] $end
$var reg 12 j# addsub_in_2_reg [11:0] $end
$var reg 12 k# mult_coef_in_reg [11:0] $end
$var integer 32 l# i [31:0] $end
$scope module addition $end
$var wire 12 m# in1 [11:0] $end
$var wire 12 n# in2 [11:0] $end
$var wire 2 o# mode [1:0] $end
$var wire 13 p# sum [12:0] $end
$var wire 12 q# res [11:0] $end
$var wire 12 r# reduce_sum [11:0] $end
$upscope $end
$scope module multiply $end
$var wire 1 " clk $end
$var wire 12 s# in1 [11:0] $end
$var wire 12 t# in2 [11:0] $end
$var wire 1 ( rst $end
$var wire 12 u# res [11:0] $end
$var wire 24 v# product [23:0] $end
$var reg 24 w# product_reg [23:0] $end
$var reg 12 x# reg1 [11:0] $end
$var reg 12 y# reg2 [11:0] $end
$scope module mod $end
$var wire 24 z# c [23:0] $end
$var wire 1 " clk $end
$var wire 1 ( rst $end
$var wire 6 {# s_2 [5:0] $end
$var wire 6 |# s_1 [5:0] $end
$var wire 6 }# r_1 [5:0] $end
$var wire 14 ~# r1c0 [13:0] $end
$var wire 12 !$ r [11:0] $end
$var wire 14 "$ d_1 [13:0] $end
$var wire 14 #$ d1_sum [13:0] $end
$var wire 16 $$ c1 [15:0] $end
$var wire 8 %$ c0 [7:0] $end
$var wire 14 &$ R [13:0] $end
$var wire 13 '$ Q_1 [12:0] $end
$var reg 13 ($ Q_1_reg [12:0] $end
$var reg 14 )$ R_reg [13:0] $end
$var reg 8 *$ c0_reg [7:0] $end
$var reg 6 +$ c1_reg [5:0] $end
$upscope $end
$upscope $end
$scope module subtraction $end
$var wire 12 ,$ in1 [11:0] $end
$var wire 12 -$ in2 [11:0] $end
$var wire 2 .$ mode [1:0] $end
$var wire 12 /$ res [11:0] $end
$var wire 12 0$ reduce_diff [11:0] $end
$var wire 13 1$ diff [12:0] $end
$upscope $end
$upscope $end
$scope module MULT_COEF $end
$var wire 1 " clk $end
$var wire 12 2$ in1 [11:0] $end
$var wire 12 3$ in2 [11:0] $end
$var wire 1 ( rst $end
$var wire 12 4$ res [11:0] $end
$var wire 24 5$ product [23:0] $end
$var reg 24 6$ product_reg [23:0] $end
$var reg 12 7$ reg1 [11:0] $end
$var reg 12 8$ reg2 [11:0] $end
$scope module mod $end
$var wire 24 9$ c [23:0] $end
$var wire 1 " clk $end
$var wire 1 ( rst $end
$var wire 6 :$ s_2 [5:0] $end
$var wire 6 ;$ s_1 [5:0] $end
$var wire 6 <$ r_1 [5:0] $end
$var wire 14 =$ r1c0 [13:0] $end
$var wire 12 >$ r [11:0] $end
$var wire 14 ?$ d_1 [13:0] $end
$var wire 14 @$ d1_sum [13:0] $end
$var wire 16 A$ c1 [15:0] $end
$var wire 8 B$ c0 [7:0] $end
$var wire 14 C$ R [13:0] $end
$var wire 13 D$ Q_1 [12:0] $end
$var reg 13 E$ Q_1_reg [12:0] $end
$var reg 14 F$ R_reg [13:0] $end
$var reg 8 G$ c0_reg [7:0] $end
$var reg 6 H$ c1_reg [5:0] $end
$upscope $end
$upscope $end
$upscope $end
$scope module FACTOR $end
$var wire 7 I$ addr [6:0] $end
$var wire 24 J$ dout [23:0] $end
$upscope $end
$scope module ROM $end
$var wire 1 " clk $end
$var wire 96 K$ rdata [95:0] $end
$var wire 5 L$ rdata_addr [4:0] $end
$var wire 1 ( rst $end
$var wire 96 M$ wdata [95:0] $end
$var wire 5 N$ wdata_addr [4:0] $end
$var integer 32 O$ i [31:0] $end
$upscope $end
$upscope $end
$upscope $end
$enddefinitions $end
$comment Show the parameter values. $end
$dumpall
b0 6
b1 5
b10 4
$end
#0
$dumpvars
b100000 O$
b0 N$
bx M$
b0 L$
b0 K$
b100001101010001101110101 J$
b1111110 I$
b0 H$
b0 G$
bx F$
b0 E$
bx D$
b0 C$
bx B$
bx A$
bx @$
bx ?$
bx >$
b0 =$
b0 <$
b0 ;$
b0 :$
bx 9$
b0 8$
b0 7$
bx 6$
b0 5$
bx 4$
b0 3$
b0 2$
b0 1$
b0 0$
b0 /$
b1 .$
b0 -$
b0 ,$
b0 +$
b0 *$
bx )$
b0 ($
bx '$
b0 &$
bx %$
bx $$
bx #$
bx "$
bx !$
b0 ~#
b0 }#
b0 |#
b0 {#
bx z#
b0 y#
b0 x#
bx w#
b0 v#
bx u#
b0 t#
b0 s#
b0 r#
b0 q#
b0 p#
b1 o#
b0 n#
b0 m#
b100 l#
b0 k#
b0 j#
b0 i#
b0 h#
b0 g#
b0 f#
b0 e#
b0 d#
b0 c#
b0 b#
bx a#
b0 `#
bx _#
b0 ^#
b1 ]#
b0 \#
b0 [#
b100110001100 Z#
b0 Y#
b0 X#
b0 W#
b1 V#
b0 U#
b0 T#
b0 S#
b0 R#
bx Q#
b0 P#
bx O#
b0 N#
bx M#
bx L#
bx K#
bx J#
bx I#
b0 H#
b0 G#
b0 F#
b0 E#
bx D#
b0 C#
b0 B#
bx A#
b0 @#
bx ?#
b0 >#
b0 =#
b0 <#
b0 ;#
b0 :#
b1 9#
b0 8#
b0 7#
b100 6#
b0 5#
b0 4#
b0 3#
b0 2#
b0 1#
b0 0#
b0 /#
b0 .#
b0 -#
b0 ,#
bx +#
b0 *#
bx )#
b0 (#
b1 '#
b0 &#
b0 %#
b100110001100 $#
b0 ##
b0 "#
b0 !#
b1 ~"
b0 }"
b0 |"
b0 {"
b0 z"
bx y"
b0 x"
bx w"
b0 v"
bx u"
bx t"
bx s"
bx r"
bx q"
b0 p"
b0 o"
b0 n"
b0 m"
bx l"
b0 k"
b0 j"
bx i"
b0 h"
bx g"
b0 f"
b0 e"
b0 d"
b0 c"
b0 b"
b1 a"
b0 `"
b0 _"
b100 ^"
b0 ]"
b0 \"
b0 ["
b0 Z"
b0 Y"
b0 X"
b0 W"
b0 V"
b0 U"
b0 T"
bx S"
b0 R"
bx Q"
b0 P"
b1 O"
b0 N"
b0 M"
b10010010111 L"
b0 K"
b0 J"
b0 I"
b1 H"
b0 G"
b0 F"
b0 E"
b0 D"
bx C"
b0 B"
bx A"
b0 @"
bx ?"
bx >"
bx ="
bx <"
bx ;"
b0 :"
b0 9"
b0 8"
b0 7"
bx 6"
b0 5"
b0 4"
bx 3"
b0 2"
bx 1"
b0 0"
b0 /"
b0 ."
b0 -"
b0 ,"
b1 +"
b0 *"
b0 )"
b100 ("
b0 '"
b0 &"
b0 %"
b0 $"
b0 #"
b0 ""
b0 !"
b0 ~
b0 }
b0 |
bx {
b0 z
bx y
b0 x
b1 w
b0 v
b0 u
b10010010111 t
b1000 s
b0 r
b0 q
b0 p
b0 o
b0 n
b0 m
b0 l
b100110001100 k
b0 j
b0 i
b100110001100 h
b0 g
b0 f
b10010010111 e
b0 d
b0 c
b10010010111 b
b0 a
bx `
b0 _
bx ^
b1 ]
b0 \
bx [
b1 Z
b0 Y
bx X
b100001101010001101110101 W
bx V
bx U
b0 T
b0 S
b0 R
b1 Q
b0 P
b1 O
b1 N
b110 M
b0 L
b1 K
b0 J
b0 I
b0 H
b10 G
b1111110 F
b11111110 E
b1 D
b0 C
0B
b0 A
b0 @
b0 ?
b0 >
0=
b0 <
b0 ;
b0 :
09
08
b0 7
b0 3
bx 2
b1111110 1
b100001101010001101110101 0
b0 /
b0 .
b0 -
bx ,
b0 +
b0 *
0)
1(
bx '
b0 &
b0 %
b0 $
b1 #
1"
z!
$end
#1000
0"
#2000
b0 `
b0 y
b0 ^
b0 Q"
b0 [
b0 )#
b0 X
b0 _#
b0 D$
b0 '$
b0 O#
b0 w"
b0 A"
b0 {
b0 1"
b0 ;"
b0 S"
b0 g"
b0 q"
b0 +#
b0 ?#
b0 I#
b0 a#
b0 u#
b0 !$
b0 V
b0 4$
b0 >$
b0 @$
b0 #$
b0 K#
b0 s"
b0 ="
bx000000000000000000000000xxxxxxxxxxxxxxxxxxxxxxxxxxxxxxxxxxxxxxxxxxxxxxxx ,
b0 ?$
b0 "$
b0 J#
b0 r"
b0 <"
bx 8"
bx 9"
bx 7"
b10010010111 ~
b10010010111 0"
bx n"
bx o"
bx m"
b10010010111 V"
b10010010111 f"
bx F#
bx G#
bx E#
b100110001100 .#
b100110001100 >#
bx |#
bx }#
bx {#
b100110001100 d#
b100110001100 t#
bx ;$
bx <$
bx :$
bx000000000000000000000000xxxxxxxxxxxxxxxxxxxxxxxxxxxxxxxxxxxxxxxxxxxxxxxx 2
bx000000000000000000000000xxxxxxxxxxxxxxxxxxxxxxxxxxxxxxxxxxxxxxxxxxxxxxxx U
bx000000000000000000000000xxxxxxxxxxxxxxxxxxxxxxxxxxxxxxxxxxxxxxxxxxxxxxxx M$
b0 B$
b0 A$
b0 %$
b0 $$
b0 M#
b0 L#
b0 u"
b0 t"
b0 ?"
b0 >"
bx :"
bx D"
bx E"
bx @"
bx B"
b0 C"
b10010010111 '"
bx p"
bx z"
bx {"
bx v"
bx x"
b0 y"
b10010010111 ]"
bx H#
bx R#
bx S#
bx N#
bx P#
b0 Q#
b100110001100 5#
bx ~#
bx *$
bx +$
bx &$
bx ($
b0 )$
b100110001100 k#
bx =$
bx G$
bx H$
bx C$
bx E$
b0 F$
bx 3
bx K$
b0 6$
b0 9$
b0 w#
b0 z#
b0 A#
b0 D#
b0 i"
b0 l"
b0 3"
b0 6"
b100 ("
b100 ^"
b100 6#
b100 l#
b1000 s
b110 M
1"
0(
#3000
0"
#4000
bx X
bx _#
bx [
bx )#
bx ^
bx Q"
bx `
bx y
bx V
bx 4$
bx >$
bx a#
bx u#
bx !$
bx +#
bx ?#
bx I#
bx S"
bx g"
bx q"
bx {
bx 1"
bx ;"
b0xxxxxxxxxxxxxxxxxxxxxxxxxxxxxxxxxxxxxxxxxxxxxxxx ,
b0 C$
b0 <$
b0 ;$
b0 :$
b0 &$
b0 }#
b0 |#
b0 {#
b0 N#
b0 G#
b0 F#
b0 E#
b0 v"
b0 o"
b0 n"
b0 m"
b0 @"
b0 9"
b0 8"
b0 7"
b0xxxxxxxxxxxxxxxxxxxxxxxxxxxxxxxxxxxxxxxxxxxxxxxx 2
b0xxxxxxxxxxxxxxxxxxxxxxxxxxxxxxxxxxxxxxxxxxxxxxxx U
b0xxxxxxxxxxxxxxxxxxxxxxxxxxxxxxxxxxxxxxxxxxxxxxxx M$
bx000000000000000000000000xxxxxxxxxxxxxxxxxxxxxxxxxxxxxxxxxxxxxxxxxxxxxxxx 3
bx000000000000000000000000xxxxxxxxxxxxxxxxxxxxxxxxxxxxxxxxxxxxxxxxxxxxxxxx K$
bx F$
b0 =$
b0 G$
b0 H$
b0 E$
b100110001100 y#
bx )$
b0 ~#
b0 *$
b0 +$
b0 ($
b100110001100 C#
bx Q#
b0 H#
b0 R#
b0 S#
b0 P#
b10010010111 k"
bx y"
b0 p"
b0 z"
b0 {"
b0 x"
b10010010111 5"
bx C"
b0 :"
b0 D"
b0 E"
b0 B"
b110 M
b1000 s
b100 l#
b100 6#
b100 ^"
b100 ("
1"
#5000
0"
#6000
b0 `
b0 y
b0 ^
b0 Q"
b0 [
b0 )#
b0 X
b0 _#
b0 {
b0 1"
b0 ;"
b0 S"
b0 g"
b0 q"
b0 +#
b0 ?#
b0 I#
b0 a#
b0 u#
b0 !$
b0 V
b0 4$
b0 >$
bx000000000000000000000000xxxxxxxxxxxxxxxxxxxxxxxxxxxxxxxxxxxxxxxxxxxxxxxx ,
bx000000000000000000000000xxxxxxxxxxxxxxxxxxxxxxxxxxxxxxxxxxxxxxxxxxxxxxxx 2
bx000000000000000000000000xxxxxxxxxxxxxxxxxxxxxxxxxxxxxxxxxxxxxxxxxxxxxxxx U
bx000000000000000000000000xxxxxxxxxxxxxxxxxxxxxxxxxxxxxxxxxxxxxxxxxxxxxxxx M$
b0 C"
b0 y"
b0 Q#
b0 )$
b0 F$
b0xxxxxxxxxxxxxxxxxxxxxxxxxxxxxxxxxxxxxxxxxxxxxxxx 3
b0xxxxxxxxxxxxxxxxxxxxxxxxxxxxxxxxxxxxxxxxxxxxxxxx K$
b100 ("
b100 ^"
b100 6#
b100 l#
b1000 s
b110 M
1"
#7000
0"
#8000
b0xxxxxxxxxxxxxxxxxxxxxxxxxxxxxxxxxxxxxxxxxxxxxxxx ,
b0xxxxxxxxxxxxxxxxxxxxxxxxxxxxxxxxxxxxxxxxxxxxxxxx 2
b0xxxxxxxxxxxxxxxxxxxxxxxxxxxxxxxxxxxxxxxxxxxxxxxx U
b0xxxxxxxxxxxxxxxxxxxxxxxxxxxxxxxxxxxxxxxxxxxxxxxx M$
bx000000000000000000000000xxxxxxxxxxxxxxxxxxxxxxxxxxxxxxxxxxxxxxxxxxxxxxxx 3
bx000000000000000000000000xxxxxxxxxxxxxxxxxxxxxxxxxxxxxxxxxxxxxxxxxxxxxxxx K$
b110 M
b1000 s
b100 l#
b100 6#
b100 ^"
b100 ("
1"
#9000
0"
#10000
b0 ,
b0 2
b0 U
b0 M$
b0xxxxxxxxxxxxxxxxxxxxxxxxxxxxxxxxxxxxxxxxxxxxxxxx 3
b0xxxxxxxxxxxxxxxxxxxxxxxxxxxxxxxxxxxxxxxxxxxxxxxx K$
b100 ("
b100 ^"
b100 6#
b100 l#
b1000 s
b110 M
1"
#11000
0"
#12000
b1 7
b1 ?
b0 3
b0 K$
b11000001 g#
b1000001 h#
b11000000 1#
b1000000 2#
b10000001 Y"
b1 Z"
b10000000 #"
b11000001 m
b11000001 \#
b1000001 l
b1000001 [#
b11000000 j
b11000000 &#
b1000000 i
b1000000 %#
b10000001 g
b10000001 N"
b1 f
b1 M"
b10000000 d
b10000000 v
b110 M
b1000 s
b100 l#
b100 6#
b100 ^"
b100 ("
b11000001000011000000000001000001000001000000000010000001000010000000000000000001000000000000 :
b11000001000011000000000001000001000001000000000010000001000010000000000000000001000000000000 P
b1 @
1"
b11000001000011000000000001000001000001000000000010000001000010000000000000000001000000000000 $
1)
#13000
0"
#14000
b1000000 }
b110011000001 |
b110011000001 /"
b1000001 U"
b110011000001 T"
b110011000001 e"
b10000000 -#
b110011000001 ,#
b110011000001 =#
b10000001 c#
b110011000001 b#
b110011000001 s#
b1000000 ""
b1000000 -"
b110011000001 !"
b110011000001 I"
b1000001 X"
b1000001 c"
b110011000001 W"
b110011000001 !#
b10000000 0#
b10000000 ;#
b110011000001 /#
b110011000001 W#
b10000001 f#
b10000001 q#
b110011000001 e#
b110011000001 /$
b10011000011 k
b10011000011 Z#
b10011000011 h
b10011000011 $#
b110001010 e
b110001010 L"
b110001010 b
b110001010 t
b1 .
b1 L$
b10000000 ."
b110010000001 J"
b10000010 d"
b110010000001 "#
b100000000 <#
b110010000001 X#
b100000010 r#
b110010000001 0$
b1 %
b1 >
b101101110111100000111110 0
b101101110111100000111110 W
b101101110111100000111110 J$
b1111100 1
b1111100 F
b1111100 I$
b1 /
b1 I
b100 G
1=
b10 7
b10000000 ,"
b1111110000000 K"
b10000000 &"
b10000000 *"
b10000000 G"
b10000001 \"
b10000001 `"
b10000001 }"
b10000010 b"
b1111110000000 ##
b1 ["
b1 _"
b1 |"
b11000000 4#
b11000000 8#
b11000000 U#
b100000000 :#
b1111110000000 Y#
b1000000 3#
b1000000 7#
b1000000 T#
b11000001 j#
b11000001 n#
b11000001 -$
b100000010 p#
b1111110000000 1$
b1000001 i#
b1000001 m#
b1000001 ,$
b11111111 E
b1 ;
b1 C
b100 ("
b100 ^"
b100 6#
b100 l#
b1000 s
b110 M
1"
#15000
0"
#16000
b10110101111 k
b10110101111 Z#
b10110101111 h
b10110101111 $#
b100011111100 e
b100011111100 L"
b100011111100 b
b100011111100 t
b10 .
b10 L$
b10 %
b10 >
b10000000101011101010010 0
b10000000101011101010010 W
b10000000101011101010010 J$
b1111010 1
b1111010 F
b1111010 I$
b10 /
b10 I
b1 J
b110 G
0=
b11 7
b10011000011 d#
b10011000011 t#
b10011000011 .#
b10011000011 >#
b110001010 V"
b110001010 f"
b110001010 ~
b110001010 0"
b0 E
b10 ;
b10 C
b10011000011 k#
b11110011100001010001100 v#
b110011000001 x#
b10011000011 5#
b11110011100001010001100 @#
b110011000001 B#
b110001010 ]"
b1110101000100111010111 h"
b110011000001 j"
b110001010 '"
b1110101000100111010111 2"
b110011000001 4"
b11100001 g#
b1100001 h#
b11100000 1#
b1100000 2#
b10100001 Y"
b100001 Z"
b10100000 #"
b100000 $"
b11100001 m
b11100001 \#
b1100001 l
b1100001 [#
b11100000 j
b11100000 &#
b1100000 i
b1100000 %#
b10100001 g
b10100001 N"
b100001 f
b100001 M"
b10100000 d
b10100000 v
b100000 c
b100000 u
b110 M
b1000 s
b100 l#
b100 6#
b100 ^"
b100 ("
b11100001000011100000000001100001000001100000000010100001000010100000000000100001000000100000 :
b11100001000011100000000001100001000001100000000010100001000010100000000000100001000000100000 P
1"
0)
b11100001000011100000000001100001000001100000000010100001000010100000000000100001000000100000 $
#17000
0"
