src/NTT/ntt_tb_1.vcd
$date
	Sat Feb 15 22:36:09 2025
$end
$version
	Icarus Verilog
$end
$timescale
	1ps
$end
$scope module ntt_tb $end
$scope module NTT_UT $end
$var wire 1 ! add_or_sub $end
$var wire 1 " clk $end
$var wire 2 # mode [1:0] $end
$var wire 96 $ r_data [95:0] $end
$var wire 8 % r_data_addr [7:0] $end
$var wire 8 & r_start_offset_A [7:0] $end
$var wire 8 ' r_start_offset_B [7:0] $end
$var wire 1 ( rst $end
$var wire 1 ) start $end
$var wire 8 * w_data_addr [7:0] $end
$var wire 8 + w_data_addr_offset [7:0] $end
$var wire 96 , w_data [95:0] $end
$var wire 5 - w_addr [4:0] $end
$var wire 5 . r_addr_wire [4:0] $end
$var wire 5 / r_addr [4:0] $end
$var wire 24 0 coef_reg [23:0] $end
$var wire 7 1 coef_addr [6:0] $end
$var wire 96 2 but_result [95:0] $end
$var wire 96 3 ROM_r_data [95:0] $end
$var parameter 32 4 FINISH $end
$var parameter 32 5 PROCESSING $end
$var parameter 32 6 START $end
$var reg 8 7 clk_counter [7:0] $end
$var reg 1 8 in_buf_load $end
$var reg 1 9 in_buf_pre_load $end
$var reg 96 : in_data_reg [95:0] $end
$var reg 8 ; ntt_counter [7:0] $end
$var reg 3 < ntt_stage [2:0] $end
$var reg 1 = ntt_type $end
$var reg 8 > r_addr_reg [7:0] $end
$var reg 2 ? stage [1:0] $end
$var reg 2 @ temp_stage [1:0] $end
$var reg 8 A w_addr_reg [7:0] $end
$var reg 1 B w_data_en $end
$scope module AG $end
$var wire 1 " clk $end
$var wire 8 C clk_counter [7:0] $end
$var wire 2 D mode [1:0] $end
$var wire 1 ( rst $end
$var wire 8 E clk_counter_sub_2 [7:0] $end
$var reg 5 F clk_counter_offset [4:0] $end
$var reg 7 G coef_addr [6:0] $end
$var reg 7 H coef_addr_cnt [6:0] $end
$var reg 7 I coef_addr_offset [6:0] $end
$var reg 5 J r_addr [4:0] $end
$var reg 5 K raddr_offset [4:0] $end
$var reg 5 L w_addr [4:0] $end
$var integer 32 M i [31:0] $end
$upscope $end
$scope module BU $end
$var wire 2 N bu_0_mode [1:0] $end
$var wire 2 O bu_1_mode [1:0] $end
$var wire 1 " clk $end
$var wire 1 8 in_buf_load $end
$var wire 1 9 in_buf_pre_load $end
$var wire 96 P in_data [95:0] $end
$var wire 2 Q mode [1:0] $end
$var wire 12 R mul_reduce_in_1 [11:0] $end
$var wire 12 S mul_reduce_in_2 [11:0] $end
$var wire 1 ( rst $end
$var wire 3 T stage [2:0] $end
$var wire 1 = type $end
$var wire 96 U out_data [95:0] $end
$var wire 12 V mul_reduce_out [11:0] $end
$var wire 24 W in_coef [23:0] $end
$var wire 12 X bu_3_out_2 [11:0] $end
$var wire 12 Y bu_3_out_1 [11:0] $end
$var wire 2 Z bu_3_mode [1:0] $end
$var wire 12 [ bu_2_out_2 [11:0] $end
$var wire 12 \ bu_2_out_1 [11:0] $end
$var wire 2 ] bu_2_mode [1:0] $end
$var wire 12 ^ bu_1_out_2 [11:0] $end
$var wire 12 _ bu_1_out_1 [11:0] $end
$var wire 12 ` bu_0_out_2 [11:0] $end
$var wire 12 a bu_0_out_1 [11:0] $end
$var reg 12 b bu_0_coef [11:0] $end
$var reg 12 c bu_0_in_1 [11:0] $end
$var reg 12 d bu_0_in_2 [11:0] $end
$var reg 12 e bu_1_coef [11:0] $end
$var reg 12 f bu_1_in_1 [11:0] $end
$var reg 12 g bu_1_in_2 [11:0] $end
$var reg 12 h bu_2_coef [11:0] $end
$var reg 12 i bu_2_in_1 [11:0] $end
$var reg 12 j bu_2_in_2 [11:0] $end
$var reg 12 k bu_3_coef [11:0] $end
$var reg 12 l bu_3_in_1 [11:0] $end
$var reg 12 m bu_3_in_2 [11:0] $end
$var reg 12 n mult_a0 [11:0] $end
$var reg 12 o mult_a1 [11:0] $end
$var reg 12 p mult_b0 [11:0] $end
$var reg 12 q mult_b1 [11:0] $end
$var reg 12 r mult_coef [11:0] $end
$var integer 32 s i [31:0] $end
$scope module BU0 $end
$var wire 1 " clk $end
$var wire 12 t coef [11:0] $end
$var wire 12 u in_1 [11:0] $end
$var wire 12 v in_2 [11:0] $end
$var wire 2 w mode [1:0] $end
$var wire 12 x mult_out_1 [11:0] $end
$var wire 1 ( rst $end
$var wire 12 y out_2 [11:0] $end
$var wire 12 z out_1 [11:0] $end
$var wire 12 { mult_out_2 [11:0] $end
$var wire 12 | mult_in_2 [11:0] $end
$var wire 12 } mult_in_1 [11:0] $end
$var wire 12 ~ mult_coef_in [11:0] $end
$var wire 12 !" addsub_out_2 [11:0] $end
$var wire 12 "" addsub_out_1 [11:0] $end
$var wire 12 #" addsub_in_2 [11:0] $end
$var wire 12 $" addsub_in_1 [11:0] $end
$var reg 12 %" addsub_in_1_reg [11:0] $end
$var reg 12 &" addsub_in_2_reg [11:0] $end
$var integer 32 '" i [31:0] $end
$scope module addition $end
$var wire 1 " clk $end
$var wire 12 (" in1 [11:0] $end
$var wire 12 )" in2 [11:0] $end
$var wire 2 *" mode [1:0] $end
$var wire 1 ( rst $end
$var wire 13 +" sum [12:0] $end
$var reg 13 ," reduce_sum [12:0] $end
$var reg 12 -" res [11:0] $end
$upscope $end
$scope module multiply $end
$var wire 1 " clk $end
$var wire 12 ." in1 [11:0] $end
$var wire 12 /" in2 [11:0] $end
$var wire 1 ( rst $end
$var wire 12 0" res [11:0] $end
$var wire 24 1" product [23:0] $end
$var reg 12 2" reg1 [11:0] $end
$var reg 12 3" reg2 [11:0] $end
$var integer 32 4" i [31:0] $end
$scope module mod $end
$var wire 24 5" c [23:0] $end
$var wire 1 " clk $end
$var wire 1 ( rst $end
$var wire 6 6" s_2 [5:0] $end
$var wire 6 7" s_1 [5:0] $end
$var wire 6 8" r_1 [5:0] $end
$var wire 14 9" r1c0 [13:0] $end
$var wire 12 :" r [11:0] $end
$var wire 14 ;" d_1 [13:0] $end
$var wire 14 <" d1_sum [13:0] $end
$var wire 16 =" c1 [15:0] $end
$var wire 8 >" c0 [7:0] $end
$var wire 14 ?" R [13:0] $end
$var wire 13 @" Q_1 [12:0] $end
$var reg 13 A" Q_1_reg [12:0] $end
$var reg 14 B" R_reg [13:0] $end
$var reg 8 C" c0_reg [7:0] $end
$var reg 6 D" c1_reg [5:0] $end
$upscope $end
$upscope $end
$scope module subtraction $end
$var wire 1 " clk $end
$var wire 12 E" in1 [11:0] $end
$var wire 12 F" in2 [11:0] $end
$var wire 2 G" mode [1:0] $end
$var wire 1 ( rst $end
$var wire 13 H" diff [12:0] $end
$var reg 13 I" reduce_diff [12:0] $end
$var reg 12 J" res [11:0] $end
$upscope $end
$upscope $end
$scope module BU1 $end
$var wire 1 " clk $end
$var wire 12 K" coef [11:0] $end
$var wire 12 L" in_1 [11:0] $end
$var wire 12 M" in_2 [11:0] $end
$var wire 2 N" mode [1:0] $end
$var wire 12 O" mult_out_1 [11:0] $end
$var wire 1 ( rst $end
$var wire 12 P" out_2 [11:0] $end
$var wire 12 Q" out_1 [11:0] $end
$var wire 12 R" mult_out_2 [11:0] $end
$var wire 12 S" mult_in_2 [11:0] $end
$var wire 12 T" mult_in_1 [11:0] $end
$var wire 12 U" mult_coef_in [11:0] $end
$var wire 12 V" addsub_out_2 [11:0] $end
$var wire 12 W" addsub_out_1 [11:0] $end
$var wire 12 X" addsub_in_2 [11:0] $end
$var wire 12 Y" addsub_in_1 [11:0] $end
$var reg 12 Z" addsub_in_1_reg [11:0] $end
$var reg 12 [" addsub_in_2_reg [11:0] $end
$var integer 32 \" i [31:0] $end
$scope module addition $end
$var wire 1 " clk $end
$var wire 12 ]" in1 [11:0] $end
$var wire 12 ^" in2 [11:0] $end
$var wire 2 _" mode [1:0] $end
$var wire 1 ( rst $end
$var wire 13 `" sum [12:0] $end
$var reg 13 a" reduce_sum [12:0] $end
$var reg 12 b" res [11:0] $end
$upscope $end
$scope module multiply $end
$var wire 1 " clk $end
$var wire 12 c" in1 [11:0] $end
$var wire 12 d" in2 [11:0] $end
$var wire 1 ( rst $end
$var wire 12 e" res [11:0] $end
$var wire 24 f" product [23:0] $end
$var reg 12 g" reg1 [11:0] $end
$var reg 12 h" reg2 [11:0] $end
$var integer 32 i" i [31:0] $end
$scope module mod $end
$var wire 24 j" c [23:0] $end
$var wire 1 " clk $end
$var wire 1 ( rst $end
$var wire 6 k" s_2 [5:0] $end
$var wire 6 l" s_1 [5:0] $end
$var wire 6 m" r_1 [5:0] $end
$var wire 14 n" r1c0 [13:0] $end
$var wire 12 o" r [11:0] $end
$var wire 14 p" d_1 [13:0] $end
$var wire 14 q" d1_sum [13:0] $end
$var wire 16 r" c1 [15:0] $end
$var wire 8 s" c0 [7:0] $end
$var wire 14 t" R [13:0] $end
$var wire 13 u" Q_1 [12:0] $end
$var reg 13 v" Q_1_reg [12:0] $end
$var reg 14 w" R_reg [13:0] $end
$var reg 8 x" c0_reg [7:0] $end
$var reg 6 y" c1_reg [5:0] $end
$upscope $end
$upscope $end
$scope module subtraction $end
$var wire 1 " clk $end
$var wire 12 z" in1 [11:0] $end
$var wire 12 {" in2 [11:0] $end
$var wire 2 |" mode [1:0] $end
$var wire 1 ( rst $end
$var wire 13 }" diff [12:0] $end
$var reg 13 ~" reduce_diff [12:0] $end
$var reg 12 !# res [11:0] $end
$upscope $end
$upscope $end
$scope module BU2 $end
$var wire 1 " clk $end
$var wire 12 "# coef [11:0] $end
$var wire 12 ## in_1 [11:0] $end
$var wire 12 $# in_2 [11:0] $end
$var wire 2 %# mode [1:0] $end
$var wire 12 &# mult_out_1 [11:0] $end
$var wire 1 ( rst $end
$var wire 12 '# out_2 [11:0] $end
$var wire 12 (# out_1 [11:0] $end
$var wire 12 )# mult_out_2 [11:0] $end
$var wire 12 *# mult_in_2 [11:0] $end
$var wire 12 +# mult_in_1 [11:0] $end
$var wire 12 ,# mult_coef_in [11:0] $end
$var wire 12 -# addsub_out_2 [11:0] $end
$var wire 12 .# addsub_out_1 [11:0] $end
$var wire 12 /# addsub_in_2 [11:0] $end
$var wire 12 0# addsub_in_1 [11:0] $end
$var reg 12 1# addsub_in_1_reg [11:0] $end
$var reg 12 2# addsub_in_2_reg [11:0] $end
$var integer 32 3# i [31:0] $end
$scope module addition $end
$var wire 1 " clk $end
$var wire 12 4# in1 [11:0] $end
$var wire 12 5# in2 [11:0] $end
$var wire 2 6# mode [1:0] $end
$var wire 1 ( rst $end
$var wire 13 7# sum [12:0] $end
$var reg 13 8# reduce_sum [12:0] $end
$var reg 12 9# res [11:0] $end
$upscope $end
$scope module multiply $end
$var wire 1 " clk $end
$var wire 12 :# in1 [11:0] $end
$var wire 12 ;# in2 [11:0] $end
$var wire 1 ( rst $end
$var wire 12 <# res [11:0] $end
$var wire 24 =# product [23:0] $end
$var reg 12 ># reg1 [11:0] $end
$var reg 12 ?# reg2 [11:0] $end
$var integer 32 @# i [31:0] $end
$scope module mod $end
$var wire 24 A# c [23:0] $end
$var wire 1 " clk $end
$var wire 1 ( rst $end
$var wire 6 B# s_2 [5:0] $end
$var wire 6 C# s_1 [5:0] $end
$var wire 6 D# r_1 [5:0] $end
$var wire 14 E# r1c0 [13:0] $end
$var wire 12 F# r [11:0] $end
$var wire 14 G# d_1 [13:0] $end
$var wire 14 H# d1_sum [13:0] $end
$var wire 16 I# c1 [15:0] $end
$var wire 8 J# c0 [7:0] $end
$var wire 14 K# R [13:0] $end
$var wire 13 L# Q_1 [12:0] $end
$var reg 13 M# Q_1_reg [12:0] $end
$var reg 14 N# R_reg [13:0] $end
$var reg 8 O# c0_reg [7:0] $end
$var reg 6 P# c1_reg [5:0] $end
$upscope $end
$upscope $end
$scope module subtraction $end
$var wire 1 " clk $end
$var wire 12 Q# in1 [11:0] $end
$var wire 12 R# in2 [11:0] $end
$var wire 2 S# mode [1:0] $end
$var wire 1 ( rst $end
$var wire 13 T# diff [12:0] $end
$var reg 13 U# reduce_diff [12:0] $end
$var reg 12 V# res [11:0] $end
$upscope $end
$upscope $end
$scope module BU3 $end
$var wire 1 " clk $end
$var wire 12 W# coef [11:0] $end
$var wire 12 X# in_1 [11:0] $end
$var wire 12 Y# in_2 [11:0] $end
$var wire 2 Z# mode [1:0] $end
$var wire 12 [# mult_out_1 [11:0] $end
$var wire 1 ( rst $end
$var wire 12 \# out_2 [11:0] $end
$var wire 12 ]# out_1 [11:0] $end
$var wire 12 ^# mult_out_2 [11:0] $end
$var wire 12 _# mult_in_2 [11:0] $end
$var wire 12 `# mult_in_1 [11:0] $end
$var wire 12 a# mult_coef_in [11:0] $end
$var wire 12 b# addsub_out_2 [11:0] $end
$var wire 12 c# addsub_out_1 [11:0] $end
$var wire 12 d# addsub_in_2 [11:0] $end
$var wire 12 e# addsub_in_1 [11:0] $end
$var reg 12 f# addsub_in_1_reg [11:0] $end
$var reg 12 g# addsub_in_2_reg [11:0] $end
$var integer 32 h# i [31:0] $end
$scope module addition $end
$var wire 1 " clk $end
$var wire 12 i# in1 [11:0] $end
$var wire 12 j# in2 [11:0] $end
$var wire 2 k# mode [1:0] $end
$var wire 1 ( rst $end
$var wire 13 l# sum [12:0] $end
$var reg 13 m# reduce_sum [12:0] $end
$var reg 12 n# res [11:0] $end
$upscope $end
$scope module multiply $end
$var wire 1 " clk $end
$var wire 12 o# in1 [11:0] $end
$var wire 12 p# in2 [11:0] $end
$var wire 1 ( rst $end
$var wire 12 q# res [11:0] $end
$var wire 24 r# product [23:0] $end
$var reg 12 s# reg1 [11:0] $end
$var reg 12 t# reg2 [11:0] $end
$var integer 32 u# i [31:0] $end
$scope module mod $end
$var wire 24 v# c [23:0] $end
$var wire 1 " clk $end
$var wire 1 ( rst $end
$var wire 6 w# s_2 [5:0] $end
$var wire 6 x# s_1 [5:0] $end
$var wire 6 y# r_1 [5:0] $end
$var wire 14 z# r1c0 [13:0] $end
$var wire 12 {# r [11:0] $end
$var wire 14 |# d_1 [13:0] $end
$var wire 14 }# d1_sum [13:0] $end
$var wire 16 ~# c1 [15:0] $end
$var wire 8 !$ c0 [7:0] $end
$var wire 14 "$ R [13:0] $end
$var wire 13 #$ Q_1 [12:0] $end
$var reg 13 $$ Q_1_reg [12:0] $end
$var reg 14 %$ R_reg [13:0] $end
$var reg 8 &$ c0_reg [7:0] $end
$var reg 6 '$ c1_reg [5:0] $end
$upscope $end
$upscope $end
$scope module subtraction $end
$var wire 1 " clk $end
$var wire 12 ($ in1 [11:0] $end
$var wire 12 )$ in2 [11:0] $end
$var wire 2 *$ mode [1:0] $end
$var wire 1 ( rst $end
$var wire 13 +$ diff [12:0] $end
$var reg 13 ,$ reduce_diff [12:0] $end
$var reg 12 -$ res [11:0] $end
$upscope $end
$upscope $end
$scope module MULT_COEF $end
$var wire 1 " clk $end
$var wire 12 .$ in1 [11:0] $end
$var wire 12 /$ in2 [11:0] $end
$var wire 1 ( rst $end
$var wire 12 0$ res [11:0] $end
$var wire 24 1$ product [23:0] $end
$var reg 12 2$ reg1 [11:0] $end
$var reg 12 3$ reg2 [11:0] $end
$var integer 32 4$ i [31:0] $end
$scope module mod $end
$var wire 24 5$ c [23:0] $end
$var wire 1 " clk $end
$var wire 1 ( rst $end
$var wire 6 6$ s_2 [5:0] $end
$var wire 6 7$ s_1 [5:0] $end
$var wire 6 8$ r_1 [5:0] $end
$var wire 14 9$ r1c0 [13:0] $end
$var wire 12 :$ r [11:0] $end
$var wire 14 ;$ d_1 [13:0] $end
$var wire 14 <$ d1_sum [13:0] $end
$var wire 16 =$ c1 [15:0] $end
$var wire 8 >$ c0 [7:0] $end
$var wire 14 ?$ R [13:0] $end
$var wire 13 @$ Q_1 [12:0] $end
$var reg 13 A$ Q_1_reg [12:0] $end
$var reg 14 B$ R_reg [13:0] $end
$var reg 8 C$ c0_reg [7:0] $end
$var reg 6 D$ c1_reg [5:0] $end
$upscope $end
$upscope $end
$upscope $end
$scope module FACTOR $end
$var wire 7 E$ addr [6:0] $end
$var wire 24 F$ dout [23:0] $end
$upscope $end
$scope module ROM $end
$var wire 1 " clk $end
$var wire 96 G$ rdata [95:0] $end
$var wire 5 H$ rdata_addr [4:0] $end
$var wire 1 ( rst $end
$var wire 96 I$ wdata [95:0] $end
$var wire 5 J$ wdata_addr [4:0] $end
$var integer 32 K$ i [31:0] $end
$upscope $end
$upscope $end
$upscope $end
$enddefinitions $end
$comment Show the parameter values. $end
$dumpall
b0 6
b1 5
b10 4
$end
#0
$dumpvars
b100000 K$
b0 J$
bx I$
b0 H$
b0 G$
b100001101010001101110101 F$
b1111110 E$
b0 D$
b0 C$
bx B$
b0 A$
b0 @$
b0 ?$
b0 >$
b0 =$
b0 <$
b0 ;$
bx :$
b0 9$
b0 8$
b0 7$
b0 6$
b0 5$
b100 4$
b0 3$
b0 2$
b0 1$
bx 0$
b0 /$
b0 .$
bx -$
b0 ,$
b0 +$
b1 *$
b0 )$
b0 ($
b0 '$
b0 &$
bx %$
b0 $$
b0 #$
b0 "$
b0 !$
b0 ~#
b0 }#
b0 |#
bx {#
b0 z#
b0 y#
b0 x#
b0 w#
b0 v#
b100 u#
b0 t#
b0 s#
b0 r#
bx q#
b0 p#
bx o#
bx n#
b0 m#
b0 l#
b1 k#
b0 j#
b0 i#
b110 h#
b0 g#
b0 f#
b0 e#
b0 d#
bx c#
bx b#
b0 a#
bx `#
bx _#
bx ^#
b0 ]#
bx \#
b0 [#
b1 Z#
b0 Y#
b0 X#
b100110001100 W#
bx V#
b0 U#
b0 T#
b1 S#
b0 R#
b0 Q#
b0 P#
b0 O#
bx N#
b0 M#
b0 L#
b0 K#
b0 J#
b0 I#
b0 H#
b0 G#
bx F#
b0 E#
b0 D#
b0 C#
b0 B#
b0 A#
b100 @#
b0 ?#
b0 >#
b0 =#
bx <#
b0 ;#
bx :#
bx 9#
b0 8#
b0 7#
b1 6#
b0 5#
b0 4#
b110 3#
b0 2#
b0 1#
b0 0#
b0 /#
bx .#
bx -#
b0 ,#
bx +#
bx *#
bx )#
b0 (#
bx '#
b0 &#
b1 %#
b0 $#
b0 ##
b100110001100 "#
bx !#
b0 ~"
b0 }"
b1 |"
b0 {"
b0 z"
b0 y"
b0 x"
bx w"
b0 v"
b0 u"
b0 t"
b0 s"
b0 r"
b0 q"
b0 p"
bx o"
b0 n"
b0 m"
b0 l"
b0 k"
b0 j"
b100 i"
b0 h"
b0 g"
b0 f"
bx e"
b0 d"
bx c"
bx b"
b0 a"
b0 `"
b1 _"
b0 ^"
b0 ]"
b110 \"
b0 ["
b0 Z"
b0 Y"
b0 X"
bx W"
bx V"
b0 U"
bx T"
bx S"
bx R"
b0 Q"
bx P"
b0 O"
b1 N"
b0 M"
b0 L"
b10010010111 K"
bx J"
b0 I"
b0 H"
b1 G"
b0 F"
b0 E"
b0 D"
b0 C"
bx B"
b0 A"
b0 @"
b0 ?"
b0 >"
b0 ="
b0 <"
b0 ;"
bx :"
b0 9"
b0 8"
b0 7"
b0 6"
b0 5"
b100 4"
b0 3"
b0 2"
b0 1"
bx 0"
b0 /"
bx ."
bx -"
b0 ,"
b0 +"
b1 *"
b0 )"
b0 ("
b110 '"
b0 &"
b0 %"
b0 $"
b0 #"
bx ""
bx !"
b0 ~
bx }
bx |
bx {
b0 z
bx y
b0 x
b1 w
b0 v
b0 u
b10010010111 t
b1000 s
b0 r
b0 q
b0 p
b0 o
b0 n
b0 m
b0 l
b100110001100 k
b0 j
b0 i
b100110001100 h
b0 g
b0 f
b10010010111 e
b0 d
b0 c
b10010010111 b
b0 a
bx `
b0 _
bx ^
b1 ]
b0 \
bx [
b1 Z
b0 Y
bx X
b100001101010001101110101 W
bx V
bx U
b0 T
b0 S
b0 R
b1 Q
b0 P
b1 O
b1 N
b1010 M
b0 L
b0 K
b0 J
b0 I
b10 H
b1111110 G
b1 F
b11111110 E
b1 D
b0 C
0B
b0 A
b0 @
b0 ?
b0 >
0=
b0 <
b0 ;
b0 :
09
08
b0 7
b0 3
bx 2
b1111110 1
b100001101010001101110101 0
b0 /
b0 .
b0 -
bx ,
b0 +
b0 *
0)
1(
bx '
b0 &
b0 %
b0 $
b1 #
1"
z!
$end
#1000
0"
#2000
b0 `
b0 y
b0 ^
b0 P"
b0 [
b0 '#
b0 X
b0 \#
b0 {
b0 0"
b0 :"
b0 R"
b0 e"
b0 o"
b0 )#
b0 <#
b0 F#
b0 ^#
b0 q#
b0 {#
b0 V
b0 0$
b0 :$
bx000000000000000000000000xxxxxxxxxxxxxxxxxxxxxxxxxxxxxxxxxxxxxxxxxxxxxxxx ,
b0 }
b0 |
b0 ."
b0 T"
b0 S"
b0 c"
b0 +#
b0 *#
b0 :#
b0 `#
b0 _#
b0 o#
bx000000000000000000000000xxxxxxxxxxxxxxxxxxxxxxxxxxxxxxxxxxxxxxxxxxxxxxxx 2
bx000000000000000000000000xxxxxxxxxxxxxxxxxxxxxxxxxxxxxxxxxxxxxxxxxxxxxxxx U
bx000000000000000000000000xxxxxxxxxxxxxxxxxxxxxxxxxxxxxxxxxxxxxxxxxxxxxxxx I$
b0 B"
bx 1"
bx 2"
b0 ""
b0 -"
b0 !"
b0 J"
b0 w"
bx f"
bx g"
b0 W"
b0 b"
b0 V"
b0 !#
b0 N#
bx =#
bx >#
b0 .#
b0 9#
b0 -#
b0 V#
b0 %$
bx r#
bx s#
b0 c#
b0 n#
b0 b#
b0 -$
b0 B$
bx 3
bx G$
b11 4"
b110 '"
b11 i"
b110 \"
b11 @#
b110 3#
b11 u#
b110 h#
b11 4$
b1000 s
b1010 M
1"
0(
#3000
0"
#4000
b0xxxxxxxxxxxxxxxxxxxxxxxxxxxxxxxxxxxxxxxxxxxxxxxx ,
b0xxxxxxxxxxxxxxxxxxxxxxxxxxxxxxxxxxxxxxxxxxxxxxxx 2
b0xxxxxxxxxxxxxxxxxxxxxxxxxxxxxxxxxxxxxxxxxxxxxxxx U
b0xxxxxxxxxxxxxxxxxxxxxxxxxxxxxxxxxxxxxxxxxxxxxxxx I$
bx000000000000000000000000xxxxxxxxxxxxxxxxxxxxxxxxxxxxxxxxxxxxxxxxxxxxxxxx 3
bx000000000000000000000000xxxxxxxxxxxxxxxxxxxxxxxxxxxxxxxxxxxxxxxxxxxxxxxx G$
b0 r#
b0 s#
b0 =#
b0 >#
b0 f"
b0 g"
b0 1"
b0 2"
b1010 M
b1000 s
b11 4$
b110 h#
b11 u#
b110 3#
b11 @#
b110 \"
b11 i"
b110 '"
b11 4"
1"
#5000
0"
#6000
b10010010111 ~
b10010010111 /"
b10010010111 U"
b10010010111 d"
b100110001100 ,#
b100110001100 ;#
b100110001100 a#
b100110001100 p#
b0xxxxxxxxxxxxxxxxxxxxxxxxxxxxxxxxxxxxxxxxxxxxxxxx 3
b0xxxxxxxxxxxxxxxxxxxxxxxxxxxxxxxxxxxxxxxxxxxxxxxx G$
b11 4"
b110 '"
b11 i"
b110 \"
b11 @#
b110 3#
b11 u#
b110 h#
b11 4$
b1000 s
b1010 M
1"
#7000
0"
#8000
bx #$
bx L#
bx u"
bx @"
bx }#
bx |#
bx H#
bx G#
bx q"
bx p"
bx <"
bx ;"
bx !$
bx ~#
bx J#
bx I#
bx s"
bx r"
bx >"
bx ="
bx v#
b100110001100 t#
bx A#
b100110001100 ?#
bx j"
b10010010111 h"
bx 5"
b10010010111 3"
b1010 M
b1000 s
b11 4$
b110 h#
b11 u#
b110 3#
b11 @#
b110 \"
b11 i"
b110 '"
b11 4"
1"
#9000
0"
#10000
b0 @"
b0 u"
b0 L#
b0 #$
b0 <"
b0 q"
b0 H#
b0 }#
b0 ;"
b0 p"
b0 G#
b0 |#
bx 7"
bx 8"
bx 6"
b0 >"
b0 ="
bx l"
bx m"
bx k"
b0 s"
b0 r"
bx C#
bx D#
bx B#
b0 J#
b0 I#
bx x#
bx y#
bx w#
b0 !$
b0 ~#
bx 9"
bx C"
bx D"
bx ?"
bx A"
b0 5"
bx n"
bx x"
bx y"
bx t"
bx v"
b0 j"
bx E#
bx O#
bx P#
bx K#
bx M#
b0 A#
bx z#
bx &$
bx '$
bx "$
bx $$
b0 v#
b11 4"
b110 '"
b11 i"
b110 \"
b11 @#
b110 3#
b11 u#
b110 h#
b11 4$
b1000 s
b1010 M
1"
#11000
0"
#12000
b10011000011 k
b10011000011 W#
b10011000011 h
b10011000011 "#
b110001010 e
b110001010 K"
b110001010 b
b110001010 t
b0 3
b0 G$
b1 .
b1 H$
bx X
bx \#
bx [
bx '#
bx ^
bx P"
bx `
bx y
b1 %
b1 >
b101101110111100000111110 0
b101101110111100000111110 W
b101101110111100000111110 F$
b1111100 1
b1111100 G
b1111100 E$
bx ^#
bx q#
bx {#
bx )#
bx <#
bx F#
bx R"
bx e"
bx o"
bx {
bx 0"
bx :"
b1 /
b1 J
b100 H
1=
bx Y
bx ]#
b0 "$
b0 y#
b0 x#
b0 w#
bx \
bx (#
b0 K#
b0 D#
b0 C#
b0 B#
bx _
bx Q"
b0 t"
b0 m"
b0 l"
b0 k"
bx a
bx z
b0 ?"
b0 8"
b0 7"
b0 6"
b1 ?
b11111111 E
b1 ;
b1 C
bx [#
bx %$
b0 z#
b0 &$
b0 '$
b0 $$
bx &#
bx N#
b0 E#
b0 O#
b0 P#
b0 M#
bx O"
bx w"
b0 n"
b0 x"
b0 y"
b0 v"
bx x
bx B"
b0 9"
b0 C"
b0 D"
b0 A"
b11000001 d#
b1000001 e#
b11000000 /#
b1000000 0#
b10000001 X"
b1 Y"
b10000000 #"
b11000001 m
b11000001 Y#
b1000001 l
b1000001 X#
b11000000 j
b11000000 $#
b1000000 i
b1000000 ##
b10000001 g
b10000001 M"
b1 f
b1 L"
b10000000 d
b10000000 v
b1010 M
b1000 s
b11 4$
b110 h#
b11 u#
b110 3#
b11 @#
b110 \"
b11 i"
b110 '"
b11 4"
b10 7
b11000001000011000000000001000001000001000000000010000001000010000000000000000001000000000000 :
b11000001000011000000000001000001000001000000000010000001000010000000000000000001000000000000 P
b1 @
1"
b11000001000011000000000001000001000001000000000010000001000010000000000000000001000000000000 $
1)
#13000
0"
#14000
b0 `
b0 y
b0 ^
b0 P"
b0 [
b0 '#
b0 X
b0 \#
b10110101111 k
b10110101111 W#
b10110101111 h
b10110101111 "#
b100011111100 e
b100011111100 K"
b100011111100 b
b100011111100 t
b0 {
b0 0"
b0 :"
b0 R"
b0 e"
b0 o"
b0 )#
b0 <#
b0 F#
b0 ^#
b0 q#
b0 {#
b10 .
b10 H$
b10 %
b10 >
b10000000101011101010010 0
b10000000101011101010010 W
b10000000101011101010010 F$
b1111010 1
b1111010 G
b1111010 E$
bx ,
b0 a
b0 z
b0 _
b0 Q"
b0 \
b0 (#
b0 Y
b0 ]#
b10 /
b10 J
b1 K
b110 H
0=
b11 7
bx 2
bx U
bx I$
b0 B"
b0 x
b10000000 +"
b1111110000000 H"
b10000000 &"
b10000000 )"
b10000000 F"
b0 w"
b0 O"
b10000001 ["
b10000001 ^"
b10000001 {"
b10000010 `"
b1111110000000 }"
b1 Z"
b1 ]"
b1 z"
b0 N#
b0 &#
b11000000 2#
b11000000 5#
b11000000 R#
b100000000 7#
b1111110000000 T#
b1000000 1#
b1000000 4#
b1000000 Q#
b0 %$
b0 [#
b11000001 g#
b11000001 j#
b11000001 )$
b100000010 l#
b1111110000000 +$
b1000001 f#
b1000001 i#
b1000001 ($
b0 E
b10 ;
b10 C
b11100001 d#
b1100001 e#
b11100000 /#
b1100000 0#
b10100001 X"
b100001 Y"
b10100000 #"
b100000 $"
b11100001 m
b11100001 Y#
b1100001 l
b1100001 X#
b11100000 j
b11100000 $#
b1100000 i
b1100000 ##
b10100001 g
b10100001 M"
b100001 f
b100001 L"
b10100000 d
b10100000 v
b100000 c
b100000 u
b11 4"
b110 '"
b11 i"
b110 \"
b11 @#
b110 3#
b11 u#
b110 h#
b11 4$
b1000 s
b1010 M
b11100001000011100000000001100001000001100000000010100001000010100000000000100001000000100000 :
b11100001000011100000000001100001000001100000000010100001000010100000000000100001000000100000 P
1"
0)
b11100001000011100000000001100001000001100000000010100001000010100000000000100001000000100000 $
#15000
0"
