src/NTT/ntt_tb_1.vcd
$date
	Sat Feb 08 09:58:14 2025
$end
$version
	Icarus Verilog
$end
$timescale
	1ps
$end
$scope module ntt_tb $end
$scope module NTT_UT $end
$var wire 1 ! add_or_sub $end
$var wire 1 " clk $end
$var wire 2 # mode [1:0] $end
$var wire 96 $ r_data [95:0] $end
$var wire 8 % r_data_addr [7:0] $end
$var wire 8 & r_start_offset_A [7:0] $end
$var wire 8 ' r_start_offset_B [7:0] $end
$var wire 1 ( rst $end
$var wire 1 ) start $end
$var wire 8 * w_data_addr [7:0] $end
$var wire 8 + w_data_addr_offset [7:0] $end
$var wire 96 , w_data [95:0] $end
$var wire 5 - w_addr [4:0] $end
$var wire 5 . r_addr_wire [4:0] $end
$var wire 5 / r_addr [4:0] $end
$var wire 24 0 coef_reg [23:0] $end
$var wire 7 1 coef_addr [6:0] $end
$var wire 96 2 but_result [95:0] $end
$var wire 96 3 ROM_r_data [95:0] $end
$var parameter 32 4 FINISH $end
$var parameter 32 5 PROCESSING $end
$var parameter 32 6 START $end
$var reg 8 7 clk_counter [7:0] $end
$var reg 1 8 in_buf_load $end
$var reg 1 9 in_buf_pre_load $end
$var reg 96 : in_data_reg [95:0] $end
$var reg 8 ; ntt_counter [7:0] $end
$var reg 3 < ntt_stage [2:0] $end
$var reg 1 = ntt_type $end
$var reg 8 > r_addr_reg [7:0] $end
$var reg 2 ? stage [1:0] $end
$var reg 2 @ temp_stage [1:0] $end
$var reg 8 A w_addr_reg [7:0] $end
$var reg 1 B w_data_en $end
$scope module AG $end
$var wire 1 " clk $end
$var wire 8 C clk_counter [7:0] $end
$var wire 2 D mode [1:0] $end
$var wire 1 ( rst $end
$var wire 6 E r_addr_wire [5:0] $end
$var wire 5 F r_addr [4:0] $end
$var wire 7 G coef_addr [6:0] $end
$var wire 8 H clk_counter_reg [7:0] $end
$var reg 7 I coef_addr_reg [6:0] $end
$var reg 5 J left_bits_raddr [4:0] $end
$var reg 5 K right_bits_raddr [4:0] $end
$var reg 3 L shift_bit [2:0] $end
$var reg 5 M w_addr [4:0] $end
$upscope $end
$scope module BU $end
$var wire 2 N bu_0_mode [1:0] $end
$var wire 2 O bu_1_mode [1:0] $end
$var wire 1 " clk $end
$var wire 1 8 in_buf_load $end
$var wire 1 9 in_buf_pre_load $end
$var wire 96 P in_data [95:0] $end
$var wire 2 Q mode [1:0] $end
$var wire 12 R mul_reduce_in_1 [11:0] $end
$var wire 12 S mul_reduce_in_2 [11:0] $end
$var wire 1 ( rst $end
$var wire 3 T stage [2:0] $end
$var wire 1 = type $end
$var wire 96 U out_data [95:0] $end
$var wire 12 V mul_reduce_out [11:0] $end
$var wire 24 W in_coef [23:0] $end
$var wire 12 X bu_3_out_2 [11:0] $end
$var wire 12 Y bu_3_out_1 [11:0] $end
$var wire 2 Z bu_3_mode [1:0] $end
$var wire 12 [ bu_2_out_2 [11:0] $end
$var wire 12 \ bu_2_out_1 [11:0] $end
$var wire 2 ] bu_2_mode [1:0] $end
$var wire 12 ^ bu_1_out_2 [11:0] $end
$var wire 12 _ bu_1_out_1 [11:0] $end
$var wire 12 ` bu_0_out_2 [11:0] $end
$var wire 12 a bu_0_out_1 [11:0] $end
$var reg 12 b bu_0_coef [11:0] $end
$var reg 12 c bu_0_in_1 [11:0] $end
$var reg 12 d bu_0_in_2 [11:0] $end
$var reg 12 e bu_1_coef [11:0] $end
$var reg 12 f bu_1_in_1 [11:0] $end
$var reg 12 g bu_1_in_2 [11:0] $end
$var reg 12 h bu_2_coef [11:0] $end
$var reg 12 i bu_2_in_1 [11:0] $end
$var reg 12 j bu_2_in_2 [11:0] $end
$var reg 12 k bu_3_coef [11:0] $end
$var reg 12 l bu_3_in_1 [11:0] $end
$var reg 12 m bu_3_in_2 [11:0] $end
$var reg 12 n mult_a0 [11:0] $end
$var reg 12 o mult_a1 [11:0] $end
$var reg 12 p mult_b0 [11:0] $end
$var reg 12 q mult_b1 [11:0] $end
$var reg 12 r mult_coef [11:0] $end
$var integer 32 s i [31:0] $end
$scope module BU0 $end
$var wire 1 " clk $end
$var wire 12 t coef [11:0] $end
$var wire 12 u in_1 [11:0] $end
$var wire 12 v in_2 [11:0] $end
$var wire 2 w mode [1:0] $end
$var wire 12 x mult_out_1 [11:0] $end
$var wire 1 ( rst $end
$var wire 12 y out_2 [11:0] $end
$var wire 12 z out_1 [11:0] $end
$var wire 12 { mult_out_2 [11:0] $end
$var wire 12 | mult_in_2 [11:0] $end
$var wire 12 } mult_in_1 [11:0] $end
$var wire 12 ~ mult_coef_in [11:0] $end
$var wire 12 !" addsub_out_2 [11:0] $end
$var wire 12 "" addsub_out_1 [11:0] $end
$var wire 12 #" addsub_in_2 [11:0] $end
$var wire 12 $" addsub_in_1 [11:0] $end
$var reg 12 %" addsub_in_1_reg [11:0] $end
$var reg 12 &" addsub_in_2_reg [11:0] $end
$scope module addition $end
$var wire 1 " clk $end
$var wire 12 '" in1 [11:0] $end
$var wire 12 (" in2 [11:0] $end
$var wire 2 )" mode [1:0] $end
$var wire 1 ( rst $end
$var wire 13 *" sum [12:0] $end
$var reg 13 +" reduce_sum [12:0] $end
$var reg 12 ," res [11:0] $end
$upscope $end
$scope module multiply $end
$var wire 1 " clk $end
$var wire 12 -" in1 [11:0] $end
$var wire 12 ." in2 [11:0] $end
$var wire 1 ( rst $end
$var wire 12 /" res [11:0] $end
$var wire 24 0" product [23:0] $end
$var reg 24 1" product_reg [23:0] $end
$var reg 12 2" reg1 [11:0] $end
$var reg 12 3" reg2 [11:0] $end
$scope module mod $end
$var wire 24 4" c [23:0] $end
$var wire 1 " clk $end
$var wire 1 ( rst $end
$var wire 6 5" s_2 [5:0] $end
$var wire 6 6" s_1 [5:0] $end
$var wire 6 7" r_1 [5:0] $end
$var wire 14 8" r1c0 [13:0] $end
$var wire 12 9" r [11:0] $end
$var wire 14 :" d_1 [13:0] $end
$var wire 14 ;" d1_sum [13:0] $end
$var wire 16 <" c1 [15:0] $end
$var wire 8 =" c0 [7:0] $end
$var wire 14 >" R [13:0] $end
$var wire 13 ?" Q_1 [12:0] $end
$var reg 13 @" Q_1_reg [12:0] $end
$var reg 14 A" R_reg [13:0] $end
$var reg 8 B" c0_reg [7:0] $end
$var reg 6 C" c1_reg [5:0] $end
$upscope $end
$upscope $end
$scope module subtraction $end
$var wire 1 " clk $end
$var wire 12 D" in1 [11:0] $end
$var wire 12 E" in2 [11:0] $end
$var wire 2 F" mode [1:0] $end
$var wire 1 ( rst $end
$var wire 13 G" diff [12:0] $end
$var reg 13 H" reduce_diff [12:0] $end
$var reg 12 I" res [11:0] $end
$upscope $end
$upscope $end
$scope module BU1 $end
$var wire 1 " clk $end
$var wire 12 J" coef [11:0] $end
$var wire 12 K" in_1 [11:0] $end
$var wire 12 L" in_2 [11:0] $end
$var wire 2 M" mode [1:0] $end
$var wire 12 N" mult_out_1 [11:0] $end
$var wire 1 ( rst $end
$var wire 12 O" out_2 [11:0] $end
$var wire 12 P" out_1 [11:0] $end
$var wire 12 Q" mult_out_2 [11:0] $end
$var wire 12 R" mult_in_2 [11:0] $end
$var wire 12 S" mult_in_1 [11:0] $end
$var wire 12 T" mult_coef_in [11:0] $end
$var wire 12 U" addsub_out_2 [11:0] $end
$var wire 12 V" addsub_out_1 [11:0] $end
$var wire 12 W" addsub_in_2 [11:0] $end
$var wire 12 X" addsub_in_1 [11:0] $end
$var reg 12 Y" addsub_in_1_reg [11:0] $end
$var reg 12 Z" addsub_in_2_reg [11:0] $end
$scope module addition $end
$var wire 1 " clk $end
$var wire 12 [" in1 [11:0] $end
$var wire 12 \" in2 [11:0] $end
$var wire 2 ]" mode [1:0] $end
$var wire 1 ( rst $end
$var wire 13 ^" sum [12:0] $end
$var reg 13 _" reduce_sum [12:0] $end
$var reg 12 `" res [11:0] $end
$upscope $end
$scope module multiply $end
$var wire 1 " clk $end
$var wire 12 a" in1 [11:0] $end
$var wire 12 b" in2 [11:0] $end
$var wire 1 ( rst $end
$var wire 12 c" res [11:0] $end
$var wire 24 d" product [23:0] $end
$var reg 24 e" product_reg [23:0] $end
$var reg 12 f" reg1 [11:0] $end
$var reg 12 g" reg2 [11:0] $end
$scope module mod $end
$var wire 24 h" c [23:0] $end
$var wire 1 " clk $end
$var wire 1 ( rst $end
$var wire 6 i" s_2 [5:0] $end
$var wire 6 j" s_1 [5:0] $end
$var wire 6 k" r_1 [5:0] $end
$var wire 14 l" r1c0 [13:0] $end
$var wire 12 m" r [11:0] $end
$var wire 14 n" d_1 [13:0] $end
$var wire 14 o" d1_sum [13:0] $end
$var wire 16 p" c1 [15:0] $end
$var wire 8 q" c0 [7:0] $end
$var wire 14 r" R [13:0] $end
$var wire 13 s" Q_1 [12:0] $end
$var reg 13 t" Q_1_reg [12:0] $end
$var reg 14 u" R_reg [13:0] $end
$var reg 8 v" c0_reg [7:0] $end
$var reg 6 w" c1_reg [5:0] $end
$upscope $end
$upscope $end
$scope module subtraction $end
$var wire 1 " clk $end
$var wire 12 x" in1 [11:0] $end
$var wire 12 y" in2 [11:0] $end
$var wire 2 z" mode [1:0] $end
$var wire 1 ( rst $end
$var wire 13 {" diff [12:0] $end
$var reg 13 |" reduce_diff [12:0] $end
$var reg 12 }" res [11:0] $end
$upscope $end
$upscope $end
$scope module BU2 $end
$var wire 1 " clk $end
$var wire 12 ~" coef [11:0] $end
$var wire 12 !# in_1 [11:0] $end
$var wire 12 "# in_2 [11:0] $end
$var wire 2 ## mode [1:0] $end
$var wire 12 $# mult_out_1 [11:0] $end
$var wire 1 ( rst $end
$var wire 12 %# out_2 [11:0] $end
$var wire 12 &# out_1 [11:0] $end
$var wire 12 '# mult_out_2 [11:0] $end
$var wire 12 (# mult_in_2 [11:0] $end
$var wire 12 )# mult_in_1 [11:0] $end
$var wire 12 *# mult_coef_in [11:0] $end
$var wire 12 +# addsub_out_2 [11:0] $end
$var wire 12 ,# addsub_out_1 [11:0] $end
$var wire 12 -# addsub_in_2 [11:0] $end
$var wire 12 .# addsub_in_1 [11:0] $end
$var reg 12 /# addsub_in_1_reg [11:0] $end
$var reg 12 0# addsub_in_2_reg [11:0] $end
$scope module addition $end
$var wire 1 " clk $end
$var wire 12 1# in1 [11:0] $end
$var wire 12 2# in2 [11:0] $end
$var wire 2 3# mode [1:0] $end
$var wire 1 ( rst $end
$var wire 13 4# sum [12:0] $end
$var reg 13 5# reduce_sum [12:0] $end
$var reg 12 6# res [11:0] $end
$upscope $end
$scope module multiply $end
$var wire 1 " clk $end
$var wire 12 7# in1 [11:0] $end
$var wire 12 8# in2 [11:0] $end
$var wire 1 ( rst $end
$var wire 12 9# res [11:0] $end
$var wire 24 :# product [23:0] $end
$var reg 24 ;# product_reg [23:0] $end
$var reg 12 <# reg1 [11:0] $end
$var reg 12 =# reg2 [11:0] $end
$scope module mod $end
$var wire 24 ># c [23:0] $end
$var wire 1 " clk $end
$var wire 1 ( rst $end
$var wire 6 ?# s_2 [5:0] $end
$var wire 6 @# s_1 [5:0] $end
$var wire 6 A# r_1 [5:0] $end
$var wire 14 B# r1c0 [13:0] $end
$var wire 12 C# r [11:0] $end
$var wire 14 D# d_1 [13:0] $end
$var wire 14 E# d1_sum [13:0] $end
$var wire 16 F# c1 [15:0] $end
$var wire 8 G# c0 [7:0] $end
$var wire 14 H# R [13:0] $end
$var wire 13 I# Q_1 [12:0] $end
$var reg 13 J# Q_1_reg [12:0] $end
$var reg 14 K# R_reg [13:0] $end
$var reg 8 L# c0_reg [7:0] $end
$var reg 6 M# c1_reg [5:0] $end
$upscope $end
$upscope $end
$scope module subtraction $end
$var wire 1 " clk $end
$var wire 12 N# in1 [11:0] $end
$var wire 12 O# in2 [11:0] $end
$var wire 2 P# mode [1:0] $end
$var wire 1 ( rst $end
$var wire 13 Q# diff [12:0] $end
$var reg 13 R# reduce_diff [12:0] $end
$var reg 12 S# res [11:0] $end
$upscope $end
$upscope $end
$scope module BU3 $end
$var wire 1 " clk $end
$var wire 12 T# coef [11:0] $end
$var wire 12 U# in_1 [11:0] $end
$var wire 12 V# in_2 [11:0] $end
$var wire 2 W# mode [1:0] $end
$var wire 12 X# mult_out_1 [11:0] $end
$var wire 1 ( rst $end
$var wire 12 Y# out_2 [11:0] $end
$var wire 12 Z# out_1 [11:0] $end
$var wire 12 [# mult_out_2 [11:0] $end
$var wire 12 \# mult_in_2 [11:0] $end
$var wire 12 ]# mult_in_1 [11:0] $end
$var wire 12 ^# mult_coef_in [11:0] $end
$var wire 12 _# addsub_out_2 [11:0] $end
$var wire 12 `# addsub_out_1 [11:0] $end
$var wire 12 a# addsub_in_2 [11:0] $end
$var wire 12 b# addsub_in_1 [11:0] $end
$var reg 12 c# addsub_in_1_reg [11:0] $end
$var reg 12 d# addsub_in_2_reg [11:0] $end
$scope module addition $end
$var wire 1 " clk $end
$var wire 12 e# in1 [11:0] $end
$var wire 12 f# in2 [11:0] $end
$var wire 2 g# mode [1:0] $end
$var wire 1 ( rst $end
$var wire 13 h# sum [12:0] $end
$var reg 13 i# reduce_sum [12:0] $end
$var reg 12 j# res [11:0] $end
$upscope $end
$scope module multiply $end
$var wire 1 " clk $end
$var wire 12 k# in1 [11:0] $end
$var wire 12 l# in2 [11:0] $end
$var wire 1 ( rst $end
$var wire 12 m# res [11:0] $end
$var wire 24 n# product [23:0] $end
$var reg 24 o# product_reg [23:0] $end
$var reg 12 p# reg1 [11:0] $end
$var reg 12 q# reg2 [11:0] $end
$scope module mod $end
$var wire 24 r# c [23:0] $end
$var wire 1 " clk $end
$var wire 1 ( rst $end
$var wire 6 s# s_2 [5:0] $end
$var wire 6 t# s_1 [5:0] $end
$var wire 6 u# r_1 [5:0] $end
$var wire 14 v# r1c0 [13:0] $end
$var wire 12 w# r [11:0] $end
$var wire 14 x# d_1 [13:0] $end
$var wire 14 y# d1_sum [13:0] $end
$var wire 16 z# c1 [15:0] $end
$var wire 8 {# c0 [7:0] $end
$var wire 14 |# R [13:0] $end
$var wire 13 }# Q_1 [12:0] $end
$var reg 13 ~# Q_1_reg [12:0] $end
$var reg 14 !$ R_reg [13:0] $end
$var reg 8 "$ c0_reg [7:0] $end
$var reg 6 #$ c1_reg [5:0] $end
$upscope $end
$upscope $end
$scope module subtraction $end
$var wire 1 " clk $end
$var wire 12 $$ in1 [11:0] $end
$var wire 12 %$ in2 [11:0] $end
$var wire 2 &$ mode [1:0] $end
$var wire 1 ( rst $end
$var wire 13 '$ diff [12:0] $end
$var reg 13 ($ reduce_diff [12:0] $end
$var reg 12 )$ res [11:0] $end
$upscope $end
$upscope $end
$scope module MULT_COEF $end
$var wire 1 " clk $end
$var wire 12 *$ in1 [11:0] $end
$var wire 12 +$ in2 [11:0] $end
$var wire 1 ( rst $end
$var wire 12 ,$ res [11:0] $end
$var wire 24 -$ product [23:0] $end
$var reg 24 .$ product_reg [23:0] $end
$var reg 12 /$ reg1 [11:0] $end
$var reg 12 0$ reg2 [11:0] $end
$scope module mod $end
$var wire 24 1$ c [23:0] $end
$var wire 1 " clk $end
$var wire 1 ( rst $end
$var wire 6 2$ s_2 [5:0] $end
$var wire 6 3$ s_1 [5:0] $end
$var wire 6 4$ r_1 [5:0] $end
$var wire 14 5$ r1c0 [13:0] $end
$var wire 12 6$ r [11:0] $end
$var wire 14 7$ d_1 [13:0] $end
$var wire 14 8$ d1_sum [13:0] $end
$var wire 16 9$ c1 [15:0] $end
$var wire 8 :$ c0 [7:0] $end
$var wire 14 ;$ R [13:0] $end
$var wire 13 <$ Q_1 [12:0] $end
$var reg 13 =$ Q_1_reg [12:0] $end
$var reg 14 >$ R_reg [13:0] $end
$var reg 8 ?$ c0_reg [7:0] $end
$var reg 6 @$ c1_reg [5:0] $end
$upscope $end
$upscope $end
$upscope $end
$scope module FACTOR $end
$var wire 7 A$ addr [6:0] $end
$var wire 24 B$ dout [23:0] $end
$upscope $end
$scope module ROM $end
$var wire 1 " clk $end
$var wire 96 C$ rdata [95:0] $end
$var wire 5 D$ rdata_addr [4:0] $end
$var wire 1 ( rst $end
$var wire 96 E$ wdata [95:0] $end
$var wire 5 F$ wdata_addr [4:0] $end
$var integer 32 G$ i [31:0] $end
$upscope $end
$upscope $end
$upscope $end
$enddefinitions $end
$comment Show the parameter values. $end
$dumpall
b0 6
b1 5
b10 4
$end
#0
$dumpvars
b100000 G$
bx F$
bx E$
b0 D$
b0 C$
b101000010100011011000001 B$
b1 A$
b0 @$
b0 ?$
bx >$
b0 =$
bx <$
b0 ;$
bx :$
bx 9$
bx 8$
bx 7$
bx 6$
b0 5$
b0 4$
b0 3$
b0 2$
bx 1$
b0 0$
b0 /$
bx .$
b0 -$
bx ,$
b0 +$
b0 *$
bx )$
b0 ($
b0 '$
b0 &$
b0 %$
b0 $$
b0 #$
b0 "$
bx !$
b0 ~#
bx }#
b0 |#
bx {#
bx z#
bx y#
bx x#
bx w#
b0 v#
b0 u#
b0 t#
b0 s#
bx r#
b0 q#
b0 p#
bx o#
b0 n#
bx m#
b11011000001 l#
b0 k#
bx j#
b0 i#
b0 h#
b0 g#
b0 f#
b0 e#
b0 d#
b0 c#
b0 b#
bx a#
bx `#
bx _#
b11011000001 ^#
b0 ]#
b0 \#
bx [#
bx Z#
bx Y#
b0 X#
b0 W#
b0 V#
b0 U#
b11011000001 T#
bx S#
b0 R#
b0 Q#
b0 P#
b0 O#
b0 N#
b0 M#
b0 L#
bx K#
b0 J#
bx I#
b0 H#
bx G#
bx F#
bx E#
bx D#
bx C#
b0 B#
b0 A#
b0 @#
b0 ?#
bx >#
b0 =#
b0 <#
bx ;#
b0 :#
bx 9#
b11011000001 8#
b0 7#
bx 6#
b0 5#
b0 4#
b0 3#
b0 2#
b0 1#
b0 0#
b0 /#
b0 .#
bx -#
bx ,#
bx +#
b11011000001 *#
b0 )#
b0 (#
bx '#
bx &#
bx %#
b0 $#
b0 ##
b0 "#
b0 !#
b11011000001 ~"
bx }"
b0 |"
b0 {"
b0 z"
b0 y"
b0 x"
b0 w"
b0 v"
bx u"
b0 t"
bx s"
b0 r"
bx q"
bx p"
bx o"
bx n"
bx m"
b0 l"
b0 k"
b0 j"
b0 i"
bx h"
b0 g"
b0 f"
bx e"
b0 d"
bx c"
b11011000001 b"
b0 a"
bx `"
b0 _"
b0 ^"
b0 ]"
b0 \"
b0 ["
b0 Z"
b0 Y"
b0 X"
bx W"
bx V"
bx U"
b11011000001 T"
b0 S"
b0 R"
bx Q"
bx P"
bx O"
b0 N"
b0 M"
b0 L"
b0 K"
b11011000001 J"
bx I"
b0 H"
b0 G"
b0 F"
b0 E"
b0 D"
b0 C"
b0 B"
bx A"
b0 @"
bx ?"
b0 >"
bx ="
bx <"
bx ;"
bx :"
bx 9"
b0 8"
b0 7"
b0 6"
b0 5"
bx 4"
b0 3"
b0 2"
bx 1"
b0 0"
bx /"
b11011000001 ."
b0 -"
bx ,"
b0 +"
b0 *"
b0 )"
b0 ("
b0 '"
b0 &"
b0 %"
b0 $"
bx #"
bx ""
bx !"
b11011000001 ~
b0 }
b0 |
bx {
bx z
bx y
b0 x
b0 w
b0 v
b0 u
b11011000001 t
b1000 s
b0 r
b0 q
b0 p
b0 o
b0 n
b0 m
b0 l
b11011000001 k
b0 j
b0 i
b11011000001 h
b0 g
b0 f
b11011000001 e
b0 d
b0 c
b11011000001 b
bx a
bx `
bx _
bx ^
b0 ]
bx \
bx [
b0 Z
bx Y
bx X
b101000010100011011000001 W
bx V
bx U
b0 T
b0 S
b0 R
b0 Q
b0 P
b0 O
b0 N
bx M
b100 L
b0 K
b0 J
b1 I
b10 H
b1 G
b0 F
b0 E
b0 D
b0 C
0B
b0 A
b0 @
b0 ?
b0 >
0=
b0 <
b0 ;
b0 :
09
08
b0 7
b0 3
bx 2
b1 1
b101000010100011011000001 0
b0 /
b0 .
bx -
bx ,
b0 +
b0 *
0)
1(
bx '
b0 &
b0 %
b0 $
b0 #
1"
z!
$end
#1000
0"
#2000
b0 #"
b0 W"
b0 -#
b0 a#
b0 <$
b0 }#
b0 I#
b0 s"
b0 ?"
b0 {
b0 /"
b0 9"
b0 Q"
b0 c"
b0 m"
b0 '#
b0 9#
b0 C#
b0 [#
b0 m#
b0 w#
b0 V
b0 ,$
b0 6$
b0 8$
b0 y#
b0 E#
b0 o"
b0 ;"
b0 7$
b0 x#
b0 D#
b0 n"
b0 :"
bx 6"
bx 7"
bx 5"
b0 a
b0 z
b0 `
b0 y
bx j"
bx k"
bx i"
b0 _
b0 P"
b0 ^
b0 O"
bx @#
bx A#
bx ?#
b0 \
b0 &#
b0 [
b0 %#
bx t#
bx u#
bx s#
b0 Y
b0 Z#
b0 X
b0 Y#
bx 3$
bx 4$
bx 2$
b0 :$
b0 9$
b0 {#
b0 z#
b0 G#
b0 F#
b0 q"
b0 p"
b0 ="
b0 <"
bx 8"
bx B"
bx C"
bx >"
bx @"
b0 A"
b11011000001 3"
b0 ""
b0 ,"
b0 !"
b0 I"
bx *"
bx G"
bx &"
bx ("
bx E"
bx l"
bx v"
bx w"
bx r"
bx t"
b0 u"
b11011000001 g"
b0 V"
b0 `"
b0 U"
b0 }"
bx ^"
bx {"
bx Z"
bx \"
bx y"
bx B#
bx L#
bx M#
bx H#
bx J#
b0 K#
b11011000001 =#
b0 ,#
b0 6#
b0 +#
b0 S#
bx 4#
bx Q#
bx 0#
bx 2#
bx O#
bx v#
bx "$
bx #$
bx |#
bx ~#
b0 !$
b11011000001 q#
b0 `#
b0 j#
b0 _#
b0 )$
bx h#
bx '$
bx d#
bx f#
bx %$
bx 5$
bx ?$
bx @$
bx ;$
bx =$
b0 >$
b0 .$
b0 1$
b0 o#
b0 r#
b0 ;#
b0 >#
b0 e"
b0 h"
b0 1"
b0 4"
b1000 s
1"
0(
#3000
0"
#4000
bx a#
bx -#
bx W"
bx #"
bx V
bx ,$
bx 6$
bx [#
bx m#
bx w#
bx '#
bx 9#
bx C#
bx Q"
bx c"
bx m"
bx {
bx /"
bx 9"
b0xxxxxxxxxxxxxxxxxxxxxxxxxxxxxxxxxxxxxxxxxxxxxxxx ,
b0 ;$
b0 4$
b0 3$
b0 2$
b0 |#
b0 u#
b0 t#
b0 s#
b0 H#
b0 A#
b0 @#
b0 ?#
b0 r"
b0 k"
b0 j"
b0 i"
b0 >"
b0 7"
b0 6"
b0 5"
b0xxxxxxxxxxxxxxxxxxxxxxxxxxxxxxxxxxxxxxxxxxxxxxxx 2
b0xxxxxxxxxxxxxxxxxxxxxxxxxxxxxxxxxxxxxxxxxxxxxxxx U
b0xxxxxxxxxxxxxxxxxxxxxxxxxxxxxxxxxxxxxxxxxxxxxxxx E$
bx >$
b0 5$
b0 ?$
b0 @$
b0 =$
b0 h#
b0 '$
b0 d#
b0 f#
b0 %$
bx ($
bx i#
bx !$
b0 v#
b0 "$
b0 #$
b0 ~#
b0 4#
b0 Q#
b0 0#
b0 2#
b0 O#
bx R#
bx 5#
bx K#
b0 B#
b0 L#
b0 M#
b0 J#
b0 ^"
b0 {"
b0 Z"
b0 \"
b0 y"
bx |"
bx _"
bx u"
b0 l"
b0 v"
b0 w"
b0 t"
b0 *"
b0 G"
b0 &"
b0 ("
b0 E"
bx H"
bx +"
bx A"
b0 8"
b0 B"
b0 C"
b0 @"
b1000 s
1"
#5000
0"
#6000
b0 #"
b0 W"
b0 -#
b0 a#
b0 {
b0 /"
b0 9"
b0 Q"
b0 c"
b0 m"
b0 '#
b0 9#
b0 C#
b0 [#
b0 m#
b0 w#
b0 V
b0 ,$
b0 6$
bx a
bx z
bx `
bx y
bx _
bx P"
bx ^
bx O"
bx \
bx &#
bx [
bx %#
bx Y
bx Z#
bx X
bx Y#
b0 A"
bx ""
bx ,"
b0 +"
bx !"
bx I"
b0 H"
bx *"
bx G"
bx &"
bx ("
bx E"
b0 u"
bx V"
bx `"
b0 _"
bx U"
bx }"
b0 |"
bx ^"
bx {"
bx Z"
bx \"
bx y"
b0 K#
bx ,#
bx 6#
b0 5#
bx +#
bx S#
b0 R#
bx 4#
bx Q#
bx 0#
bx 2#
bx O#
b0 !$
bx `#
bx j#
b0 i#
bx _#
bx )$
b0 ($
bx h#
bx '$
bx d#
bx f#
bx %$
b0 >$
b1000 s
1"
#7000
0"
#8000
bx ,
b0 X
b0 Y#
b0 Y
b0 Z#
b0 [
b0 %#
b0 \
b0 &#
b0 ^
b0 O"
b0 _
b0 P"
b0 `
b0 y
b0 a
b0 z
bx 2
bx U
bx E$
b0 h#
b0 '$
b0 d#
b0 f#
b0 %$
b0 _#
b0 )$
bx ($
b0 `#
b0 j#
bx i#
b0 4#
b0 Q#
b0 0#
b0 2#
b0 O#
b0 +#
b0 S#
bx R#
b0 ,#
b0 6#
bx 5#
b0 ^"
b0 {"
b0 Z"
b0 \"
b0 y"
b0 U"
b0 }"
bx |"
b0 V"
b0 `"
bx _"
b0 *"
b0 G"
b0 &"
b0 ("
b0 E"
b0 !"
b0 I"
bx H"
b0 ""
b0 ,"
bx +"
b1000 s
1"
#9000
0"
#10000
b0 ,
bx a
bx z
bx `
bx y
bx _
bx P"
bx ^
bx O"
bx \
bx &#
bx [
bx %#
bx Y
bx Z#
bx X
bx Y#
b0 2
b0 U
b0 E$
bx ""
bx ,"
b0 +"
bx !"
bx I"
b0 H"
bx V"
bx `"
b0 _"
bx U"
bx }"
b0 |"
bx ,#
bx 6#
b0 5#
bx +#
bx S#
b0 R#
bx `#
bx j#
b0 i#
bx _#
bx )$
b0 ($
b1000 s
1"
#11000
0"
#12000
b1 .
b1 D$
b1 %
b1 >
b1 /
b1 F
bx ,
b1 E
b1 K
1=
bx *
bx A
bx 2
bx U
bx E$
b1 ?
b11 H
b1 ;
b1 C
b0 _#
b0 )$
b0 `#
b0 j#
b0 +#
b0 S#
b0 ,#
b0 6#
b0 U"
b0 }"
b0 V"
b0 `"
b0 !"
b0 I"
b0 ""
b0 ,"
b10000001 W"
b1 X"
b10000000 #"
b0 )#
b0 (#
b0 7#
b1000000 .#
b11000000 -#
b0 \
b0 &#
b0 [
b0 %#
b0 ]#
b0 \#
b0 k#
b1000001 b#
b11000001 a#
b0 Y
b0 Z#
b0 X
b0 Y#
b11000001 m
b11000001 V#
b1000001 l
b1000001 U#
b11000000 j
b11000000 "#
b1000000 i
b1000000 !#
b10000001 g
b10000001 L"
b1 f
b1 K"
b10000000 d
b10000000 v
b0 }
b0 |
b0 -"
b0 a
b0 z
b0 `
b0 y
b0 S"
b0 R"
b0 a"
b0 _
b0 P"
b0 ^
b0 O"
b111 L
b101101110111100000111110 0
b101101110111100000111110 W
b101101110111100000111110 B$
b1111100 1
b1111100 G
b1111100 I
b1111100 A$
b1000 s
b10011000011 k
b10011000011 T#
b10011000011 h
b10011000011 ~"
b110001010 e
b110001010 J"
b110001010 b
b110001010 t
b1 ]
b1 ##
b1 3#
b1 P#
b1 Z
b1 W#
b1 g#
b1 &$
b10 7
b11000001000011000000000001000001000001000000000010000001000010000000000000000001000000000000 :
b11000001000011000000000001000001000001000000000010000001000010000000000000000001000000000000 P
b1 @
1"
b11000001000011000000000001000001000001000000000010000001000010000000000000000001000000000000 $
b1 N
b1 w
b1 )"
b1 F"
b1 O
b1 M"
b1 ]"
b1 z"
b1 #
b1 D
b1 Q
1)
#13000
0"
#14000
b10 .
b10 D$
b10 %
b10 >
b10110101111 k
b10110101111 T#
b10110101111 h
b10110101111 ~"
b100011111100 e
b100011111100 J"
b100011111100 b
b100011111100 t
b10 /
b10 F
b0 ,
b10 E
b10 K
b10000000101011101010010 0
b10000000101011101010010 W
b10000000101011101010010 B$
b1111010 1
b1111010 G
b1111010 I
b1111010 A$
0=
b11 7
b0 2
b0 U
b0 E$
b10000000 *"
b1111110000000 G"
b10000000 &"
b10000000 ("
b10000000 E"
b10000001 Z"
b10000001 \"
b10000001 y"
b10000010 ^"
b1111110000000 {"
b1 Y"
b1 ["
b1 x"
b11000000 0#
b11000000 2#
b11000000 O#
b100000000 4#
b1111110000000 Q#
b1000000 /#
b1000000 1#
b1000000 N#
b11000001 d#
b11000001 f#
b11000001 %$
b100000010 h#
b1111110000000 '$
b1000001 c#
b1000001 e#
b1000001 $$
b100 H
b10 ;
b10 C
b11100001 a#
b1100001 b#
b11100000 -#
b1100000 .#
b10100001 W"
b100001 X"
b10100000 #"
b100000 $"
b11100001 m
b11100001 V#
b1100001 l
b1100001 U#
b11100000 j
b11100000 "#
b1100000 i
b1100000 !#
b10100001 g
b10100001 L"
b100001 f
b100001 K"
b10100000 d
b10100000 v
b100000 c
b100000 u
b1000 s
b11100001000011100000000001100001000001100000000010100001000010100000000000100001000000100000 :
b11100001000011100000000001100001000001100000000010100001000010100000000000100001000000100000 P
1"
0)
b11100001000011100000000001100001000001100000000010100001000010100000000000100001000000100000 $
#15000
0"
